experiment	#droplet	concentration	T_nuk	V_drop	cooling rate
yyyyMMdd_hhmmss_substance_concentration_Nuk(_Post).txt		mg/mL	dC	microL	dC/min
Snomax					
20140310_162853_Snomax_1.0E-6_Nuk.txt	1	1E-6	-9.9	1	1
20140310_162853_Snomax_1.0E-6_Nuk.txt	2	1E-6	-30.2	1	1
20140310_162853_Snomax_1.0E-6_Nuk.txt	3	1E-6	-9	1	1
20140310_162853_Snomax_1.0E-6_Nuk.txt	4	1E-6	-9.9	1	1
20140310_162853_Snomax_1.0E-6_Nuk.txt	5	1E-6	-11.6	1	1
20140310_162853_Snomax_1.0E-6_Nuk.txt	6	1E-6	-11.2	1	1
20140310_162853_Snomax_1.0E-6_Nuk.txt	7	1E-6	-10.3	1	1
20140310_162853_Snomax_1.0E-6_Nuk.txt	8	1E-6	-10.6	1	1
20140310_162853_Snomax_1.0E-6_Nuk.txt	9	1E-6	-10.4	1	1
20140310_162853_Snomax_1.0E-6_Nuk.txt	10	1E-6	-10.5	1	1
20140310_162853_Snomax_1.0E-6_Nuk.txt	11	1E-6	-11.2	1	1
20140310_162853_Snomax_1.0E-6_Nuk.txt	12	1E-6	-23.7	1	1
20140310_162853_Snomax_1.0E-6_Nuk.txt	13	1E-6	-26.2	1	1
20140310_162853_Snomax_1.0E-6_Nuk.txt	14	1E-6	-21.3	1	1
20140310_162853_Snomax_1.0E-6_Nuk.txt	15	1E-6	-9.9	1	1
20140310_162853_Snomax_1.0E-6_Nuk.txt	16	1E-6	-10.6	1	1
20140310_162853_Snomax_1.0E-6_Nuk.txt	17	1E-6	-8.8	1	1
20140310_162853_Snomax_1.0E-6_Nuk.txt	18	1E-6	-27.1	1	1
20140310_162853_Snomax_1.0E-6_Nuk.txt	19	1E-6	-27.4	1	1
20140310_162853_Snomax_1.0E-6_Nuk.txt	20	1E-6	-12.9	1	1
20140310_162853_Snomax_1.0E-6_Nuk.txt	21	1E-6	-11.3	1	1
20140310_162853_Snomax_1.0E-6_Nuk.txt	22	1E-6	-9.4	1	1
20140310_162853_Snomax_1.0E-6_Nuk.txt	23	1E-6	-9.1	1	1
20140310_162853_Snomax_1.0E-6_Nuk.txt	24	1E-6	-10.6	1	1
20140310_162853_Snomax_1.0E-6_Nuk.txt	25	1E-6	-29	1	1
20140310_162853_Snomax_1.0E-6_Nuk.txt	26	1E-6	-8.6	1	1
20140310_162853_Snomax_1.0E-6_Nuk.txt	27	1E-6	-25.1	1	1
20140310_162853_Snomax_1.0E-6_Nuk.txt	28	1E-6	-9.8	1	1
20140310_162853_Snomax_1.0E-6_Nuk.txt	29	1E-6	-9.1	1	1
20140310_162853_Snomax_1.0E-6_Nuk.txt	30	1E-6	-11.4	1	1
20140310_162853_Snomax_1.0E-6_Nuk.txt	31	1E-6	-11.9	1	1
20140310_162853_Snomax_1.0E-6_Nuk.txt	32	1E-6	-9.1	1	1
20140310_162853_Snomax_1.0E-6_Nuk.txt	33	1E-6	-10.5	1	1
20140310_162853_Snomax_1.0E-6_Nuk.txt	34	1E-6	-12.1	1	1
20140310_162853_Snomax_1.0E-6_Nuk.txt	35	1E-6	-12.6	1	1
20140310_162853_Snomax_1.0E-6_Nuk.txt	36	1E-6	-10.4	1	1
20140319_110236_Snomax_1.0E-6_Nuk.txt	1	1E-6	-31.6	1	1
20140319_110236_Snomax_1.0E-6_Nuk.txt	2	1E-6	-10.2	1	1
20140319_110236_Snomax_1.0E-6_Nuk.txt	3	1E-6	-9.9	1	1
20140319_110236_Snomax_1.0E-6_Nuk.txt	4	1E-6	-20	1	1
20140319_110236_Snomax_1.0E-6_Nuk.txt	5	1E-6	-9.1	1	1
20140319_110236_Snomax_1.0E-6_Nuk.txt	6	1E-6	-10	1	1
20140319_110236_Snomax_1.0E-6_Nuk.txt	7	1E-6	-33.5	1	1
20140319_110236_Snomax_1.0E-6_Nuk.txt	8	1E-6	-12.3	1	1
20140319_110236_Snomax_1.0E-6_Nuk.txt	9	1E-6	-10.4	1	1
20140319_110236_Snomax_1.0E-6_Nuk.txt	10	1E-6	-9.4	1	1
20140319_110236_Snomax_1.0E-6_Nuk.txt	11	1E-6	-32.2	1	1
20140319_110236_Snomax_1.0E-6_Nuk.txt	12	1E-6	-9.1	1	1
20140319_110236_Snomax_1.0E-6_Nuk.txt	13	1E-6	-9.2	1	1
20140319_110236_Snomax_1.0E-6_Nuk.txt	14	1E-6	-9.9	1	1
20140319_110236_Snomax_1.0E-6_Nuk.txt	15	1E-6	-9.2	1	1
20140319_110236_Snomax_1.0E-6_Nuk.txt	16	1E-6	-8.9	1	1
20140319_110236_Snomax_1.0E-6_Nuk.txt	17	1E-6	-9.5	1	1
20140319_110236_Snomax_1.0E-6_Nuk.txt	18	1E-6	-11.1	1	1
20140319_110236_Snomax_1.0E-6_Nuk.txt	19	1E-6	-9.2	1	1
20140319_110236_Snomax_1.0E-6_Nuk.txt	20	1E-6	-9.5	1	1
20140319_110236_Snomax_1.0E-6_Nuk.txt	21	1E-6	-9.5	1	1
20140319_110236_Snomax_1.0E-6_Nuk.txt	22	1E-6	-9.9	1	1
20140319_110236_Snomax_1.0E-6_Nuk.txt	23	1E-6	-9.4	1	1
20140319_110236_Snomax_1.0E-6_Nuk.txt	24	1E-6	-12.3	1	1
20140319_110236_Snomax_1.0E-6_Nuk.txt	25	1E-6	-8.6	1	1
20140319_110236_Snomax_1.0E-6_Nuk.txt	26	1E-6	-9.1	1	1
20140319_110236_Snomax_1.0E-6_Nuk.txt	27	1E-6	-9.7	1	1
20140319_110236_Snomax_1.0E-6_Nuk.txt	28	1E-6	-9.1	1	1
20140319_110236_Snomax_1.0E-6_Nuk.txt	29	1E-6	-9.9	1	1
20140319_110236_Snomax_1.0E-6_Nuk.txt	30	1E-6	-14	1	1
20140319_110236_Snomax_1.0E-6_Nuk.txt	31	1E-6	-9.6	1	1
20140319_110236_Snomax_1.0E-6_Nuk.txt	32	1E-6	-10.1	1	1
20140319_110236_Snomax_1.0E-6_Nuk.txt	33	1E-6	-9.9	1	1
20140319_110236_Snomax_1.0E-6_Nuk.txt	34	1E-6	-9.1	1	1
20140319_110236_Snomax_1.0E-6_Nuk.txt	35	1E-6	-35.6	1	1
20140319_110236_Snomax_1.0E-6_Nuk.txt	36	1E-6	-9.5	1	1
20140321_112248_Smonax_1.0E-6_Nuk.txt	1	1E-6	-24.3	1	1
20140321_112248_Smonax_1.0E-6_Nuk.txt	2	1E-6	-10.1	1	1
20140321_112248_Smonax_1.0E-6_Nuk.txt	3	1E-6	-9	1	1
20140321_112248_Smonax_1.0E-6_Nuk.txt	4	1E-6	-10.5	1	1
20140321_112248_Smonax_1.0E-6_Nuk.txt	5	1E-6	-10.4	1	1
20140321_112248_Smonax_1.0E-6_Nuk.txt	6	1E-6	-10.4	1	1
20140321_112248_Smonax_1.0E-6_Nuk.txt	7	1E-6	-9.4	1	1
20140321_112248_Smonax_1.0E-6_Nuk.txt	8	1E-6	-10	1	1
20140321_112248_Smonax_1.0E-6_Nuk.txt	9	1E-6	-9.7	1	1
20140321_112248_Smonax_1.0E-6_Nuk.txt	10	1E-6	-23.7	1	1
20140321_112248_Smonax_1.0E-6_Nuk.txt	11	1E-6	-29.5	1	1
20140321_112248_Smonax_1.0E-6_Nuk.txt	12	1E-6	-10.7	1	1
20140321_112248_Smonax_1.0E-6_Nuk.txt	13	1E-6	-10.3	1	1
20140321_112248_Smonax_1.0E-6_Nuk.txt	14	1E-6	-10	1	1
20140321_112248_Smonax_1.0E-6_Nuk.txt	15	1E-6	-34.3	1	1
20140321_112248_Smonax_1.0E-6_Nuk.txt	16	1E-6	-9.4	1	1
20140321_112248_Smonax_1.0E-6_Nuk.txt	17	1E-6	-9.5	1	1
20140321_112248_Smonax_1.0E-6_Nuk.txt	18	1E-6	-10.1	1	1
20140321_112248_Smonax_1.0E-6_Nuk.txt	19	1E-6	-9.6	1	1
20140321_112248_Smonax_1.0E-6_Nuk.txt	20	1E-6	-9.5	1	1
20140321_112248_Smonax_1.0E-6_Nuk.txt	21	1E-6	-28.2	1	1
20140321_112248_Smonax_1.0E-6_Nuk.txt	22	1E-6	-11.1	1	1
20140321_112248_Smonax_1.0E-6_Nuk.txt	23	1E-6	-33.7	1	1
20140321_112248_Smonax_1.0E-6_Nuk.txt	24	1E-6	-12.8	1	1
20140321_112248_Smonax_1.0E-6_Nuk.txt	25	1E-6	-9.1	1	1
20140321_112248_Smonax_1.0E-6_Nuk.txt	26	1E-6	-31.6	1	1
20140321_112248_Smonax_1.0E-6_Nuk.txt	27	1E-6	-9.4	1	1
20140321_112248_Smonax_1.0E-6_Nuk.txt	28	1E-6	-8.6	1	1
20140321_112248_Smonax_1.0E-6_Nuk.txt	29	1E-6	-9.2	1	1
20140321_112248_Smonax_1.0E-6_Nuk.txt	30	1E-6	-12.6	1	1
20140321_112248_Smonax_1.0E-6_Nuk.txt	31	1E-6	-9.8	1	1
20140321_112248_Smonax_1.0E-6_Nuk.txt	32	1E-6	-33.3	1	1
20140321_112248_Smonax_1.0E-6_Nuk.txt	33	1E-6	-14.1	1	1
20140321_112248_Smonax_1.0E-6_Nuk.txt	34	1E-6	-12	1	1
20140321_112248_Smonax_1.0E-6_Nuk.txt	35	1E-6	-8.6	1	1
20140321_112248_Smonax_1.0E-6_Nuk.txt	36	1E-6	-9.3	1	1
20140327_150652_Snomax_4.0E-6_Nuk.txt	1	4E-6	-9.3	1	1
20140327_150652_Snomax_4.0E-6_Nuk.txt	2	4E-6	-9.1	1	1
20140327_150652_Snomax_4.0E-6_Nuk.txt	3	4E-6	-9.3	1	1
20140327_150652_Snomax_4.0E-6_Nuk.txt	4	4E-6	-9.7	1	1
20140327_150652_Snomax_4.0E-6_Nuk.txt	5	4E-6	-9.8	1	1
20140327_150652_Snomax_4.0E-6_Nuk.txt	6	4E-6	-32.2	1	1
20140327_150652_Snomax_4.0E-6_Nuk.txt	7	4E-6	-9.1	1	1
20140327_150652_Snomax_4.0E-6_Nuk.txt	8	4E-6	-8.5	1	1
20140327_150652_Snomax_4.0E-6_Nuk.txt	9	4E-6	-8.9	1	1
20140327_150652_Snomax_4.0E-6_Nuk.txt	10	4E-6	-8.7	1	1
20140327_150652_Snomax_4.0E-6_Nuk.txt	11	4E-6	-9.1	1	1
20140327_150652_Snomax_4.0E-6_Nuk.txt	12	4E-6	-9.7	1	1
20140327_150652_Snomax_4.0E-6_Nuk.txt	13	4E-6	-9.9	1	1
20140327_150652_Snomax_4.0E-6_Nuk.txt	14	4E-6	-9.8	1	1
20140327_150652_Snomax_4.0E-6_Nuk.txt	15	4E-6	-9.4	1	1
20140327_150652_Snomax_4.0E-6_Nuk.txt	16	4E-6	-9	1	1
20140327_150652_Snomax_4.0E-6_Nuk.txt	17	4E-6	-9	1	1
20140327_150652_Snomax_4.0E-6_Nuk.txt	18	4E-6	-9.2	1	1
20140327_150652_Snomax_4.0E-6_Nuk.txt	19	4E-6	-9.4	1	1
20140327_150652_Snomax_4.0E-6_Nuk.txt	20	4E-6	-9.9	1	1
20140327_150652_Snomax_4.0E-6_Nuk.txt	21	4E-6	-9.3	1	1
20140327_150652_Snomax_4.0E-6_Nuk.txt	22	4E-6	-9.7	1	1
20140327_150652_Snomax_4.0E-6_Nuk.txt	23	4E-6	-9.6	1	1
20140327_150652_Snomax_4.0E-6_Nuk.txt	24	4E-6	-8.9	1	1
20140327_150652_Snomax_4.0E-6_Nuk.txt	25	4E-6	-9.7	1	1
20140327_150652_Snomax_4.0E-6_Nuk.txt	26	4E-6	-28.3	1	1
20140327_150652_Snomax_4.0E-6_Nuk.txt	27	4E-6	-9	1	1
20140327_150652_Snomax_4.0E-6_Nuk.txt	28	4E-6	-9.4	1	1
20140327_150652_Snomax_4.0E-6_Nuk.txt	29	4E-6	-9	1	1
20140327_150652_Snomax_4.0E-6_Nuk.txt	30	4E-6	-9.1	1	1
20140327_150652_Snomax_4.0E-6_Nuk.txt	31	4E-6	-9.8	1	1
20140327_150652_Snomax_4.0E-6_Nuk.txt	32	4E-6	-9.2	1	1
20140327_150652_Snomax_4.0E-6_Nuk.txt	33	4E-6	-9.9	1	1
20140327_150652_Snomax_4.0E-6_Nuk.txt	34	4E-6	-10	1	1
20140327_150652_Snomax_4.0E-6_Nuk.txt	35	4E-6	-8.9	1	1
20140327_150652_Snomax_4.0E-6_Nuk.txt	36	4E-6	-9.3	1	1
20140327_162147_Snomax_4.0E-6_Nuk.txt	1	4E-6	-9.4	1	1
20140327_162147_Snomax_4.0E-6_Nuk.txt	2	4E-6	-9.8	1	1
20140327_162147_Snomax_4.0E-6_Nuk.txt	3	4E-6	-9.4	1	1
20140327_162147_Snomax_4.0E-6_Nuk.txt	4	4E-6	-9.2	1	1
20140327_162147_Snomax_4.0E-6_Nuk.txt	5	4E-6	-9.8	1	1
20140327_162147_Snomax_4.0E-6_Nuk.txt	6	4E-6	-9.8	1	1
20140327_162147_Snomax_4.0E-6_Nuk.txt	7	4E-6	-8.7	1	1
20140327_162147_Snomax_4.0E-6_Nuk.txt	8	4E-6	-9.2	1	1
20140327_162147_Snomax_4.0E-6_Nuk.txt	9	4E-6	-8.8	1	1
20140327_162147_Snomax_4.0E-6_Nuk.txt	10	4E-6	-9.4	1	1
20140327_162147_Snomax_4.0E-6_Nuk.txt	11	4E-6	-9	1	1
20140327_162147_Snomax_4.0E-6_Nuk.txt	12	4E-6	-9.6	1	1
20140327_162147_Snomax_4.0E-6_Nuk.txt	13	4E-6	-29.7	1	1
20140327_162147_Snomax_4.0E-6_Nuk.txt	14	4E-6	-8.8	1	1
20140327_162147_Snomax_4.0E-6_Nuk.txt	15	4E-6	-9.7	1	1
20140327_162147_Snomax_4.0E-6_Nuk.txt	16	4E-6	-9.4	1	1
20140327_162147_Snomax_4.0E-6_Nuk.txt	17	4E-6	-10.3	1	1
20140327_162147_Snomax_4.0E-6_Nuk.txt	18	4E-6	-9.7	1	1
20140327_162147_Snomax_4.0E-6_Nuk.txt	19	4E-6	-9	1	1
20140327_162147_Snomax_4.0E-6_Nuk.txt	20	4E-6	-9.3	1	1
20140327_162147_Snomax_4.0E-6_Nuk.txt	21	4E-6	-9	1	1
20140327_162147_Snomax_4.0E-6_Nuk.txt	22	4E-6	-9.2	1	1
20140327_162147_Snomax_4.0E-6_Nuk.txt	23	4E-6	-9	1	1
20140327_162147_Snomax_4.0E-6_Nuk.txt	24	4E-6	-9.5	1	1
20140327_162147_Snomax_4.0E-6_Nuk.txt	25	4E-6	-9.8	1	1
20140327_162147_Snomax_4.0E-6_Nuk.txt	26	4E-6	-9.4	1	1
20140327_162147_Snomax_4.0E-6_Nuk.txt	27	4E-6	-10	1	1
20140327_162147_Snomax_4.0E-6_Nuk.txt	28	4E-6	-9.4	1	1
20140327_162147_Snomax_4.0E-6_Nuk.txt	29	4E-6	-8.8	1	1
20140327_162147_Snomax_4.0E-6_Nuk.txt	30	4E-6	-9	1	1
20140327_162147_Snomax_4.0E-6_Nuk.txt	31	4E-6	-8.4	1	1
20140327_162147_Snomax_4.0E-6_Nuk.txt	32	4E-6	-9.2	1	1
20140327_162147_Snomax_4.0E-6_Nuk.txt	33	4E-6	-9.5	1	1
20140327_162147_Snomax_4.0E-6_Nuk.txt	34	4E-6	-9.9	1	1
20140327_162147_Snomax_4.0E-6_Nuk.txt	35	4E-6	-10.4	1	1
20140327_162147_Snomax_4.0E-6_Nuk.txt	36	4E-6	-9.8	1	1
20140327_173334_Snomax_4.0E-6_Nuk.txt	1	4E-6	-11.6	1	1
20140327_173334_Snomax_4.0E-6_Nuk.txt	2	4E-6	-9.2	1	1
20140327_173334_Snomax_4.0E-6_Nuk.txt	3	4E-6	-9.1	1	1
20140327_173334_Snomax_4.0E-6_Nuk.txt	4	4E-6	-9.5	1	1
20140327_173334_Snomax_4.0E-6_Nuk.txt	5	4E-6	-20	1	1
20140327_173334_Snomax_4.0E-6_Nuk.txt	6	4E-6	-9.6	1	1
20140327_173334_Snomax_4.0E-6_Nuk.txt	7	4E-6	-9.2	1	1
20140327_173334_Snomax_4.0E-6_Nuk.txt	8	4E-6	-8.9	1	1
20140327_173334_Snomax_4.0E-6_Nuk.txt	9	4E-6	-9.2	1	1
20140327_173334_Snomax_4.0E-6_Nuk.txt	10	4E-6	-9.6	1	1
20140327_173334_Snomax_4.0E-6_Nuk.txt	11	4E-6	-10.4	1	1
20140327_173334_Snomax_4.0E-6_Nuk.txt	12	4E-6	-9.7	1	1
20140327_173334_Snomax_4.0E-6_Nuk.txt	13	4E-6	-12.7	1	1
20140327_173334_Snomax_4.0E-6_Nuk.txt	14	4E-6	-9.3	1	1
20140327_173334_Snomax_4.0E-6_Nuk.txt	15	4E-6	-9.7	1	1
20140327_173334_Snomax_4.0E-6_Nuk.txt	16	4E-6	-10.8	1	1
20140327_173334_Snomax_4.0E-6_Nuk.txt	17	4E-6	-9.3	1	1
20140327_173334_Snomax_4.0E-6_Nuk.txt	18	4E-6	-9.8	1	1
20140327_173334_Snomax_4.0E-6_Nuk.txt	19	4E-6	-9.7	1	1
20140327_173334_Snomax_4.0E-6_Nuk.txt	20	4E-6	-8.4	1	1
20140327_173334_Snomax_4.0E-6_Nuk.txt	21	4E-6	-8.9	1	1
20140327_173334_Snomax_4.0E-6_Nuk.txt	22	4E-6	-9.2	1	1
20140327_173334_Snomax_4.0E-6_Nuk.txt	23	4E-6	-10.2	1	1
20140327_173334_Snomax_4.0E-6_Nuk.txt	24	4E-6	-9.6	1	1
20140327_173334_Snomax_4.0E-6_Nuk.txt	25	4E-6	-9.3	1	1
20140327_173334_Snomax_4.0E-6_Nuk.txt	26	4E-6	-8.9	1	1
20140327_173334_Snomax_4.0E-6_Nuk.txt	27	4E-6	-8.8	1	1
20140327_173334_Snomax_4.0E-6_Nuk.txt	28	4E-6	-9.4	1	1
20140327_173334_Snomax_4.0E-6_Nuk.txt	29	4E-6	-9.3	1	1
20140327_173334_Snomax_4.0E-6_Nuk.txt	30	4E-6	-9.5	1	1
20140327_173334_Snomax_4.0E-6_Nuk.txt	31	4E-6	-11.3	1	1
20140327_173334_Snomax_4.0E-6_Nuk.txt	32	4E-6	-9.3	1	1
20140327_173334_Snomax_4.0E-6_Nuk.txt	33	4E-6	-9.9	1	1
20140327_173334_Snomax_4.0E-6_Nuk.txt	34	4E-6	-29.8	1	1
20140327_173334_Snomax_4.0E-6_Nuk.txt	35	4E-6	-10.3	1	1
20140327_173334_Snomax_4.0E-6_Nuk.txt	36	4E-6	-9.1	1	1
20140310_173517_Snomax_1.0E-5_Nuk.txt	1	1E-5	-9.3	1	1
20140310_173517_Snomax_1.0E-5_Nuk.txt	2	1E-5	-9.1	1	1
20140310_173517_Snomax_1.0E-5_Nuk.txt	3	1E-5	-11.1	1	1
20140310_173517_Snomax_1.0E-5_Nuk.txt	4	1E-5	-8.9	1	1
20140310_173517_Snomax_1.0E-5_Nuk.txt	5	1E-5	-8.8	1	1
20140310_173517_Snomax_1.0E-5_Nuk.txt	6	1E-5	-10.7	1	1
20140310_173517_Snomax_1.0E-5_Nuk.txt	7	1E-5	-10	1	1
20140310_173517_Snomax_1.0E-5_Nuk.txt	8	1E-5	-9.9	1	1
20140310_173517_Snomax_1.0E-5_Nuk.txt	9	1E-5	-8.9	1	1
20140310_173517_Snomax_1.0E-5_Nuk.txt	10	1E-5	-9.1	1	1
20140310_173517_Snomax_1.0E-5_Nuk.txt	11	1E-5	-9	1	1
20140310_173517_Snomax_1.0E-5_Nuk.txt	12	1E-5	-10	1	1
20140310_173517_Snomax_1.0E-5_Nuk.txt	13	1E-5	-9.9	1	1
20140310_173517_Snomax_1.0E-5_Nuk.txt	14	1E-5	-9.3	1	1
20140310_173517_Snomax_1.0E-5_Nuk.txt	15	1E-5	-9.1	1	1
20140310_173517_Snomax_1.0E-5_Nuk.txt	16	1E-5	-8.5	1	1
20140310_173517_Snomax_1.0E-5_Nuk.txt	17	1E-5	-9.3	1	1
20140310_173517_Snomax_1.0E-5_Nuk.txt	18	1E-5	-8.9	1	1
20140310_173517_Snomax_1.0E-5_Nuk.txt	19	1E-5	-9.3	1	1
20140310_173517_Snomax_1.0E-5_Nuk.txt	20	1E-5	-8.9	1	1
20140310_173517_Snomax_1.0E-5_Nuk.txt	21	1E-5	-9.7	1	1
20140310_173517_Snomax_1.0E-5_Nuk.txt	22	1E-5	-8.9	1	1
20140310_173517_Snomax_1.0E-5_Nuk.txt	23	1E-5	-9.3	1	1
20140310_173517_Snomax_1.0E-5_Nuk.txt	24	1E-5	-8.9	1	1
20140310_173517_Snomax_1.0E-5_Nuk.txt	25	1E-5	-8.9	1	1
20140310_173517_Snomax_1.0E-5_Nuk.txt	26	1E-5	-9.7	1	1
20140310_173517_Snomax_1.0E-5_Nuk.txt	27	1E-5	-9.3	1	1
20140310_173517_Snomax_1.0E-5_Nuk.txt	28	1E-5	-10.3	1	1
20140310_173517_Snomax_1.0E-5_Nuk.txt	29	1E-5	-8.7	1	1
20140310_173517_Snomax_1.0E-5_Nuk.txt	30	1E-5	-9.5	1	1
20140310_173517_Snomax_1.0E-5_Nuk.txt	31	1E-5	-9	1	1
20140310_173517_Snomax_1.0E-5_Nuk.txt	32	1E-5	-6	1	1
20140310_173517_Snomax_1.0E-5_Nuk.txt	33	1E-5	-9.3	1	1
20140310_173517_Snomax_1.0E-5_Nuk.txt	34	1E-5	-9.7	1	1
20140310_173517_Snomax_1.0E-5_Nuk.txt	35	1E-5	-8.9	1	1
20140310_173517_Snomax_1.0E-5_Nuk.txt	36	1E-5	-10.4	1	1
20140319_175021_Snomax_1.0E-5_Nuk.txt	1	1E-5	-10	1	1
20140319_175021_Snomax_1.0E-5_Nuk.txt	2	1E-5	-9.5	1	1
20140319_175021_Snomax_1.0E-5_Nuk.txt	3	1E-5	-8.8	1	1
20140319_175021_Snomax_1.0E-5_Nuk.txt	4	1E-5	-9	1	1
20140319_175021_Snomax_1.0E-5_Nuk.txt	5	1E-5	-8.5	1	1
20140319_175021_Snomax_1.0E-5_Nuk.txt	6	1E-5	-8.7	1	1
20140319_175021_Snomax_1.0E-5_Nuk.txt	7	1E-5	-8.8	1	1
20140319_175021_Snomax_1.0E-5_Nuk.txt	8	1E-5	-9	1	1
20140319_175021_Snomax_1.0E-5_Nuk.txt	9	1E-5	-9.6	1	1
20140319_175021_Snomax_1.0E-5_Nuk.txt	10	1E-5	-9.4	1	1
20140319_175021_Snomax_1.0E-5_Nuk.txt	11	1E-5	-9.5	1	1
20140319_175021_Snomax_1.0E-5_Nuk.txt	12	1E-5	-9.1	1	1
20140319_175021_Snomax_1.0E-5_Nuk.txt	13	1E-5	-8.8	1	1
20140319_175021_Snomax_1.0E-5_Nuk.txt	14	1E-5	-8.7	1	1
20140319_175021_Snomax_1.0E-5_Nuk.txt	15	1E-5	-9.1	1	1
20140319_175021_Snomax_1.0E-5_Nuk.txt	16	1E-5	-9.4	1	1
20140319_175021_Snomax_1.0E-5_Nuk.txt	17	1E-5	-9.1	1	1
20140319_175021_Snomax_1.0E-5_Nuk.txt	18	1E-5	-9.4	1	1
20140319_175021_Snomax_1.0E-5_Nuk.txt	19	1E-5	-9.7	1	1
20140319_175021_Snomax_1.0E-5_Nuk.txt	20	1E-5	-9	1	1
20140319_175021_Snomax_1.0E-5_Nuk.txt	21	1E-5	-9.4	1	1
20140319_175021_Snomax_1.0E-5_Nuk.txt	22	1E-5	-8.4	1	1
20140319_175021_Snomax_1.0E-5_Nuk.txt	23	1E-5	-8.8	1	1
20140319_175021_Snomax_1.0E-5_Nuk.txt	24	1E-5	-9.1	1	1
20140319_175021_Snomax_1.0E-5_Nuk.txt	25	1E-5	-9.9	1	1
20140319_175021_Snomax_1.0E-5_Nuk.txt	26	1E-5	-9.1	1	1
20140319_175021_Snomax_1.0E-5_Nuk.txt	27	1E-5	-9.2	1	1
20140319_175021_Snomax_1.0E-5_Nuk.txt	28	1E-5	-9.4	1	1
20140319_175021_Snomax_1.0E-5_Nuk.txt	29	1E-5	-9.2	1	1
20140319_175021_Snomax_1.0E-5_Nuk.txt	30	1E-5	-9	1	1
20140319_175021_Snomax_1.0E-5_Nuk.txt	31	1E-5	-9.3	1	1
20140319_175021_Snomax_1.0E-5_Nuk.txt	32	1E-5	-9	1	1
20140319_175021_Snomax_1.0E-5_Nuk.txt	33	1E-5	-9.3	1	1
20140319_175021_Snomax_1.0E-5_Nuk.txt	34	1E-5	-9.3	1	1
20140319_175021_Snomax_1.0E-5_Nuk.txt	35	1E-5	-9	1	1
20140319_175021_Snomax_1.0E-5_Nuk.txt	36	1E-5	-9.1	1	1
20140321_144611_Snomax_1.0E-5_Nuk.txt	1	1E-5	-9.7	1	1
20140321_144611_Snomax_1.0E-5_Nuk.txt	2	1E-5	-9.4	1	1
20140321_144611_Snomax_1.0E-5_Nuk.txt	3	1E-5	-8.6	1	1
20140321_144611_Snomax_1.0E-5_Nuk.txt	4	1E-5	-9.6	1	1
20140321_144611_Snomax_1.0E-5_Nuk.txt	5	1E-5	-9.1	1	1
20140321_144611_Snomax_1.0E-5_Nuk.txt	6	1E-5	-9.4	1	1
20140321_144611_Snomax_1.0E-5_Nuk.txt	7	1E-5	-9.1	1	1
20140321_144611_Snomax_1.0E-5_Nuk.txt	8	1E-5	-9.3	1	1
20140321_144611_Snomax_1.0E-5_Nuk.txt	9	1E-5	-9.7	1	1
20140321_144611_Snomax_1.0E-5_Nuk.txt	10	1E-5	-9.3	1	1
20140321_144611_Snomax_1.0E-5_Nuk.txt	11	1E-5	-9.3	1	1
20140321_144611_Snomax_1.0E-5_Nuk.txt	12	1E-5	-9.1	1	1
20140321_144611_Snomax_1.0E-5_Nuk.txt	13	1E-5	-9.2	1	1
20140321_144611_Snomax_1.0E-5_Nuk.txt	14	1E-5	-9	1	1
20140321_144611_Snomax_1.0E-5_Nuk.txt	15	1E-5	-9.9	1	1
20140321_144611_Snomax_1.0E-5_Nuk.txt	16	1E-5	-9	1	1
20140321_144611_Snomax_1.0E-5_Nuk.txt	17	1E-5	-9.4	1	1
20140321_144611_Snomax_1.0E-5_Nuk.txt	18	1E-5	-9.6	1	1
20140321_144611_Snomax_1.0E-5_Nuk.txt	19	1E-5	-9.1	1	1
20140321_144611_Snomax_1.0E-5_Nuk.txt	20	1E-5	-9.4	1	1
20140321_144611_Snomax_1.0E-5_Nuk.txt	21	1E-5	-9.1	1	1
20140321_144611_Snomax_1.0E-5_Nuk.txt	22	1E-5	-9.3	1	1
20140321_144611_Snomax_1.0E-5_Nuk.txt	23	1E-5	-9	1	1
20140321_144611_Snomax_1.0E-5_Nuk.txt	24	1E-5	-9.1	1	1
20140321_144611_Snomax_1.0E-5_Nuk.txt	25	1E-5	-8.6	1	1
20140321_144611_Snomax_1.0E-5_Nuk.txt	26	1E-5	-9	1	1
20140321_144611_Snomax_1.0E-5_Nuk.txt	27	1E-5	-8.5	1	1
20140321_144611_Snomax_1.0E-5_Nuk.txt	28	1E-5	-8.9	1	1
20140321_144611_Snomax_1.0E-5_Nuk.txt	29	1E-5	-8.7	1	1
20140321_144611_Snomax_1.0E-5_Nuk.txt	30	1E-5	-9.5	1	1
20140321_144611_Snomax_1.0E-5_Nuk.txt	31	1E-5	-9.3	1	1
20140321_144611_Snomax_1.0E-5_Nuk.txt	32	1E-5	-9.5	1	1
20140321_144611_Snomax_1.0E-5_Nuk.txt	33	1E-5	-9.1	1	1
20140321_144611_Snomax_1.0E-5_Nuk.txt	34	1E-5	-8.8	1	1
20140321_144611_Snomax_1.0E-5_Nuk.txt	35	1E-5	-9.3	1	1
20140321_144611_Snomax_1.0E-5_Nuk.txt	36	1E-5	-9	1	1
20140326_112529_Snomax_1.0E-5_Nuk.txt	1	1E-5	-8.9	1	1
20140326_112529_Snomax_1.0E-5_Nuk.txt	2	1E-5	-8.9	1	1
20140326_112529_Snomax_1.0E-5_Nuk.txt	3	1E-5	-9.1	1	1
20140326_112529_Snomax_1.0E-5_Nuk.txt	4	1E-5	-9	1	1
20140326_112529_Snomax_1.0E-5_Nuk.txt	5	1E-5	-9	1	1
20140326_112529_Snomax_1.0E-5_Nuk.txt	6	1E-5	-8.7	1	1
20140326_112529_Snomax_1.0E-5_Nuk.txt	7	1E-5	-9.5	1	1
20140326_112529_Snomax_1.0E-5_Nuk.txt	8	1E-5	-8.8	1	1
20140326_112529_Snomax_1.0E-5_Nuk.txt	9	1E-5	-8.8	1	1
20140326_112529_Snomax_1.0E-5_Nuk.txt	10	1E-5	-8.7	1	1
20140326_112529_Snomax_1.0E-5_Nuk.txt	11	1E-5	-8.7	1	1
20140326_112529_Snomax_1.0E-5_Nuk.txt	12	1E-5	-8.6	1	1
20140326_112529_Snomax_1.0E-5_Nuk.txt	13	1E-5	-9.3	1	1
20140326_112529_Snomax_1.0E-5_Nuk.txt	14	1E-5	-8.7	1	1
20140326_112529_Snomax_1.0E-5_Nuk.txt	15	1E-5	-8.9	1	1
20140326_112529_Snomax_1.0E-5_Nuk.txt	16	1E-5	-8.6	1	1
20140326_112529_Snomax_1.0E-5_Nuk.txt	17	1E-5	-8.4	1	1
20140326_112529_Snomax_1.0E-5_Nuk.txt	18	1E-5	-8.9	1	1
20140326_112529_Snomax_1.0E-5_Nuk.txt	19	1E-5	-8.6	1	1
20140326_112529_Snomax_1.0E-5_Nuk.txt	20	1E-5	-8.3	1	1
20140326_112529_Snomax_1.0E-5_Nuk.txt	21	1E-5	-9.6	1	1
20140326_112529_Snomax_1.0E-5_Nuk.txt	22	1E-5	-8.8	1	1
20140326_112529_Snomax_1.0E-5_Nuk.txt	23	1E-5	-7.8	1	1
20140326_112529_Snomax_1.0E-5_Nuk.txt	24	1E-5	-8.5	1	1
20140326_112529_Snomax_1.0E-5_Nuk.txt	25	1E-5	-8.8	1	1
20140326_112529_Snomax_1.0E-5_Nuk.txt	26	1E-5	-8.9	1	1
20140326_112529_Snomax_1.0E-5_Nuk.txt	27	1E-5	-8.9	1	1
20140326_112529_Snomax_1.0E-5_Nuk.txt	28	1E-5	-8.6	1	1
20140326_112529_Snomax_1.0E-5_Nuk.txt	29	1E-5	-9.4	1	1
20140326_112529_Snomax_1.0E-5_Nuk.txt	30	1E-5	-8.9	1	1
20140326_112529_Snomax_1.0E-5_Nuk.txt	31	1E-5	-8.9	1	1
20140326_112529_Snomax_1.0E-5_Nuk.txt	32	1E-5	-8.4	1	1
20140326_112529_Snomax_1.0E-5_Nuk.txt	33	1E-5	-9.4	1	1
20140326_112529_Snomax_1.0E-5_Nuk.txt	34	1E-5	-8.7	1	1
20140326_112529_Snomax_1.0E-5_Nuk.txt	35	1E-5	-8.4	1	1
20140326_112529_Snomax_1.0E-5_Nuk.txt	36	1E-5	-9.2	1	1
20140326_131530_Snomax_1.0E-5_Nuk.txt	1	1E-5	-8.8	1	1
20140326_131530_Snomax_1.0E-5_Nuk.txt	2	1E-5	-9.2	1	1
20140326_131530_Snomax_1.0E-5_Nuk.txt	3	1E-5	-9	1	1
20140326_131530_Snomax_1.0E-5_Nuk.txt	4	1E-5	-8.6	1	1
20140326_131530_Snomax_1.0E-5_Nuk.txt	5	1E-5	-9.3	1	1
20140326_131530_Snomax_1.0E-5_Nuk.txt	6	1E-5	-9.1	1	1
20140326_131530_Snomax_1.0E-5_Nuk.txt	7	1E-5	-9.2	1	1
20140326_131530_Snomax_1.0E-5_Nuk.txt	8	1E-5	-9.2	1	1
20140326_131530_Snomax_1.0E-5_Nuk.txt	9	1E-5	-9.2	1	1
20140326_131530_Snomax_1.0E-5_Nuk.txt	10	1E-5	-9	1	1
20140326_131530_Snomax_1.0E-5_Nuk.txt	11	1E-5	-9.1	1	1
20140326_131530_Snomax_1.0E-5_Nuk.txt	12	1E-5	-9.6	1	1
20140326_131530_Snomax_1.0E-5_Nuk.txt	13	1E-5	-9.3	1	1
20140326_131530_Snomax_1.0E-5_Nuk.txt	14	1E-5	-8.8	1	1
20140326_131530_Snomax_1.0E-5_Nuk.txt	15	1E-5	-9.1	1	1
20140326_131530_Snomax_1.0E-5_Nuk.txt	16	1E-5	-8.6	1	1
20140326_131530_Snomax_1.0E-5_Nuk.txt	17	1E-5	-9.3	1	1
20140326_131530_Snomax_1.0E-5_Nuk.txt	18	1E-5	-9.2	1	1
20140326_131530_Snomax_1.0E-5_Nuk.txt	19	1E-5	-9.4	1	1
20140326_131530_Snomax_1.0E-5_Nuk.txt	20	1E-5	-9	1	1
20140326_131530_Snomax_1.0E-5_Nuk.txt	21	1E-5	-8.6	1	1
20140326_131530_Snomax_1.0E-5_Nuk.txt	22	1E-5	-8.3	1	1
20140326_131530_Snomax_1.0E-5_Nuk.txt	23	1E-5	-9.1	1	1
20140326_131530_Snomax_1.0E-5_Nuk.txt	24	1E-5	-9.7	1	1
20140326_131530_Snomax_1.0E-5_Nuk.txt	25	1E-5	-8.5	1	1
20140326_131530_Snomax_1.0E-5_Nuk.txt	26	1E-5	-8.9	1	1
20140326_131530_Snomax_1.0E-5_Nuk.txt	27	1E-5	-9.2	1	1
20140326_131530_Snomax_1.0E-5_Nuk.txt	28	1E-5	-9.2	1	1
20140326_131530_Snomax_1.0E-5_Nuk.txt	29	1E-5	-9.6	1	1
20140326_131530_Snomax_1.0E-5_Nuk.txt	30	1E-5	-8.8	1	1
20140326_131530_Snomax_1.0E-5_Nuk.txt	31	1E-5	-9.3	1	1
20140326_131530_Snomax_1.0E-5_Nuk.txt	32	1E-5	-8.7	1	1
20140326_131530_Snomax_1.0E-5_Nuk.txt	33	1E-5	-8.8	1	1
20140326_131530_Snomax_1.0E-5_Nuk.txt	34	1E-5	-9.6	1	1
20140326_131530_Snomax_1.0E-5_Nuk.txt	35	1E-5	-9.1	1	1
20140326_131530_Snomax_1.0E-5_Nuk.txt	36	1E-5	-9.4	1	1
20140326_140826_Snomax_1.0E-5_Nuk.txt	1	1E-5	-8.8	1	1
20140326_140826_Snomax_1.0E-5_Nuk.txt	2	1E-5	-9.1	1	1
20140326_140826_Snomax_1.0E-5_Nuk.txt	3	1E-5	-9.2	1	1
20140326_140826_Snomax_1.0E-5_Nuk.txt	4	1E-5	-8.8	1	1
20140326_140826_Snomax_1.0E-5_Nuk.txt	5	1E-5	-9	1	1
20140326_140826_Snomax_1.0E-5_Nuk.txt	6	1E-5	-9.2	1	1
20140326_140826_Snomax_1.0E-5_Nuk.txt	7	1E-5	-9.2	1	1
20140326_140826_Snomax_1.0E-5_Nuk.txt	8	1E-5	-8.8	1	1
20140326_140826_Snomax_1.0E-5_Nuk.txt	9	1E-5	-9.3	1	1
20140326_140826_Snomax_1.0E-5_Nuk.txt	10	1E-5	-9.1	1	1
20140326_140826_Snomax_1.0E-5_Nuk.txt	11	1E-5	-8.8	1	1
20140326_140826_Snomax_1.0E-5_Nuk.txt	12	1E-5	-9.1	1	1
20140326_140826_Snomax_1.0E-5_Nuk.txt	13	1E-5	-8.4	1	1
20140326_140826_Snomax_1.0E-5_Nuk.txt	14	1E-5	-9	1	1
20140326_140826_Snomax_1.0E-5_Nuk.txt	15	1E-5	-9.6	1	1
20140326_140826_Snomax_1.0E-5_Nuk.txt	16	1E-5	-9.1	1	1
20140326_140826_Snomax_1.0E-5_Nuk.txt	17	1E-5	-8.3	1	1
20140326_140826_Snomax_1.0E-5_Nuk.txt	18	1E-5	-9.2	1	1
20140326_140826_Snomax_1.0E-5_Nuk.txt	19	1E-5	-9.1	1	1
20140326_140826_Snomax_1.0E-5_Nuk.txt	20	1E-5	-9	1	1
20140326_140826_Snomax_1.0E-5_Nuk.txt	21	1E-5	-9.6	1	1
20140326_140826_Snomax_1.0E-5_Nuk.txt	22	1E-5	-9	1	1
20140326_140826_Snomax_1.0E-5_Nuk.txt	23	1E-5	-8.7	1	1
20140326_140826_Snomax_1.0E-5_Nuk.txt	24	1E-5	-9.1	1	1
20140326_140826_Snomax_1.0E-5_Nuk.txt	25	1E-5	-8.8	1	1
20140326_140826_Snomax_1.0E-5_Nuk.txt	26	1E-5	-9.2	1	1
20140326_140826_Snomax_1.0E-5_Nuk.txt	27	1E-5	-9.2	1	1
20140326_140826_Snomax_1.0E-5_Nuk.txt	28	1E-5	-9.1	1	1
20140326_140826_Snomax_1.0E-5_Nuk.txt	29	1E-5	-8.8	1	1
20140326_140826_Snomax_1.0E-5_Nuk.txt	30	1E-5	-9.2	1	1
20140326_140826_Snomax_1.0E-5_Nuk.txt	31	1E-5	-9.1	1	1
20140326_140826_Snomax_1.0E-5_Nuk.txt	32	1E-5	-9	1	1
20140326_140826_Snomax_1.0E-5_Nuk.txt	33	1E-5	-8.8	1	1
20140326_140826_Snomax_1.0E-5_Nuk.txt	34	1E-5	-9.1	1	1
20140326_140826_Snomax_1.0E-5_Nuk.txt	35	1E-5	-9.1	1	1
20140326_140826_Snomax_1.0E-5_Nuk.txt	36	1E-5	-9.4	1	1
20140326_150200_Snomax_1.0E-5_Nuk.txt	1	1E-5	-9	1	1
20140326_150200_Snomax_1.0E-5_Nuk.txt	2	1E-5	-9.1	1	1
20140326_150200_Snomax_1.0E-5_Nuk.txt	3	1E-5	-9.2	1	1
20140326_150200_Snomax_1.0E-5_Nuk.txt	4	1E-5	-9.2	1	1
20140326_150200_Snomax_1.0E-5_Nuk.txt	5	1E-5	-8.8	1	1
20140326_150200_Snomax_1.0E-5_Nuk.txt	6	1E-5	-9.1	1	1
20140326_150200_Snomax_1.0E-5_Nuk.txt	7	1E-5	-9.1	1	1
20140326_150200_Snomax_1.0E-5_Nuk.txt	8	1E-5	-9	1	1
20140326_150200_Snomax_1.0E-5_Nuk.txt	9	1E-5	-8.7	1	1
20140326_150200_Snomax_1.0E-5_Nuk.txt	10	1E-5	-9	1	1
20140326_150200_Snomax_1.0E-5_Nuk.txt	11	1E-5	-9.5	1	1
20140326_150200_Snomax_1.0E-5_Nuk.txt	12	1E-5	-9.2	1	1
20140326_150200_Snomax_1.0E-5_Nuk.txt	13	1E-5	-8.7	1	1
20140326_150200_Snomax_1.0E-5_Nuk.txt	14	1E-5	-8.7	1	1
20140326_150200_Snomax_1.0E-5_Nuk.txt	15	1E-5	-8.3	1	1
20140326_150200_Snomax_1.0E-5_Nuk.txt	16	1E-5	-9.4	1	1
20140326_150200_Snomax_1.0E-5_Nuk.txt	17	1E-5	-9	1	1
20140326_150200_Snomax_1.0E-5_Nuk.txt	18	1E-5	-8.6	1	1
20140326_150200_Snomax_1.0E-5_Nuk.txt	19	1E-5	-9	1	1
20140326_150200_Snomax_1.0E-5_Nuk.txt	20	1E-5	-9	1	1
20140326_150200_Snomax_1.0E-5_Nuk.txt	21	1E-5	-9.1	1	1
20140326_150200_Snomax_1.0E-5_Nuk.txt	22	1E-5	-9.2	1	1
20140326_150200_Snomax_1.0E-5_Nuk.txt	23	1E-5	-9.7	1	1
20140326_150200_Snomax_1.0E-5_Nuk.txt	24	1E-5	-8.8	1	1
20140326_150200_Snomax_1.0E-5_Nuk.txt	25	1E-5	-9.3	1	1
20140326_150200_Snomax_1.0E-5_Nuk.txt	26	1E-5	-9.2	1	1
20140326_150200_Snomax_1.0E-5_Nuk.txt	27	1E-5	-9.1	1	1
20140326_150200_Snomax_1.0E-5_Nuk.txt	28	1E-5	-8.8	1	1
20140326_150200_Snomax_1.0E-5_Nuk.txt	29	1E-5	-8.3	1	1
20140326_150200_Snomax_1.0E-5_Nuk.txt	30	1E-5	-9.3	1	1
20140326_150200_Snomax_1.0E-5_Nuk.txt	31	1E-5	-9	1	1
20140326_150200_Snomax_1.0E-5_Nuk.txt	32	1E-5	-10.2	1	1
20140326_150200_Snomax_1.0E-5_Nuk.txt	33	1E-5	-9.3	1	1
20140326_150200_Snomax_1.0E-5_Nuk.txt	34	1E-5	-9.2	1	1
20140326_150200_Snomax_1.0E-5_Nuk.txt	35	1E-5	-9.1	1	1
20140326_150200_Snomax_1.0E-5_Nuk.txt	36	1E-5	-9	1	1
20140326_154841_Snomax_1.0E-5_Nuk.txt	1	1E-5	-9.5	1	1
20140326_154841_Snomax_1.0E-5_Nuk.txt	2	1E-5	-9.3	1	1
20140326_154841_Snomax_1.0E-5_Nuk.txt	3	1E-5	-8.8	1	1
20140326_154841_Snomax_1.0E-5_Nuk.txt	4	1E-5	-9.3	1	1
20140326_154841_Snomax_1.0E-5_Nuk.txt	5	1E-5	-8.9	1	1
20140326_154841_Snomax_1.0E-5_Nuk.txt	6	1E-5	-9.3	1	1
20140326_154841_Snomax_1.0E-5_Nuk.txt	7	1E-5	-9.6	1	1
20140326_154841_Snomax_1.0E-5_Nuk.txt	8	1E-5	-9.3	1	1
20140326_154841_Snomax_1.0E-5_Nuk.txt	9	1E-5	-9.1	1	1
20140326_154841_Snomax_1.0E-5_Nuk.txt	10	1E-5	-8.8	1	1
20140326_154841_Snomax_1.0E-5_Nuk.txt	11	1E-5	-8.9	1	1
20140326_154841_Snomax_1.0E-5_Nuk.txt	12	1E-5	-8.8	1	1
20140326_154841_Snomax_1.0E-5_Nuk.txt	13	1E-5	-9.1	1	1
20140326_154841_Snomax_1.0E-5_Nuk.txt	14	1E-5	-9.4	1	1
20140326_154841_Snomax_1.0E-5_Nuk.txt	15	1E-5	-9.2	1	1
20140326_154841_Snomax_1.0E-5_Nuk.txt	16	1E-5	-9	1	1
20140326_154841_Snomax_1.0E-5_Nuk.txt	17	1E-5	-8.9	1	1
20140326_154841_Snomax_1.0E-5_Nuk.txt	18	1E-5	-8.8	1	1
20140326_154841_Snomax_1.0E-5_Nuk.txt	19	1E-5	-9.4	1	1
20140326_154841_Snomax_1.0E-5_Nuk.txt	20	1E-5	-8.9	1	1
20140326_154841_Snomax_1.0E-5_Nuk.txt	21	1E-5	-9.4	1	1
20140326_154841_Snomax_1.0E-5_Nuk.txt	22	1E-5	-9.1	1	1
20140326_154841_Snomax_1.0E-5_Nuk.txt	23	1E-5	-8.8	1	1
20140326_154841_Snomax_1.0E-5_Nuk.txt	24	1E-5	-9	1	1
20140326_154841_Snomax_1.0E-5_Nuk.txt	25	1E-5	-9.9	1	1
20140326_154841_Snomax_1.0E-5_Nuk.txt	26	1E-5	-9.3	1	1
20140326_154841_Snomax_1.0E-5_Nuk.txt	27	1E-5	-8.7	1	1
20140326_154841_Snomax_1.0E-5_Nuk.txt	28	1E-5	-8.8	1	1
20140326_154841_Snomax_1.0E-5_Nuk.txt	29	1E-5	-9.5	1	1
20140326_154841_Snomax_1.0E-5_Nuk.txt	30	1E-5	-8.1	1	1
20140326_154841_Snomax_1.0E-5_Nuk.txt	31	1E-5	-8.7	1	1
20140326_154841_Snomax_1.0E-5_Nuk.txt	32	1E-5	-9.2	1	1
20140326_154841_Snomax_1.0E-5_Nuk.txt	33	1E-5	-9.6	1	1
20140326_154841_Snomax_1.0E-5_Nuk.txt	34	1E-5	-9	1	1
20140326_154841_Snomax_1.0E-5_Nuk.txt	35	1E-5	-8.9	1	1
20140326_154841_Snomax_1.0E-5_Nuk.txt	36	1E-5	-9.4	1	1
20140327_111443_Snomax_2.6E-5_Nuk.txt	1	2.6E-5	-8.9	1	1
20140327_111443_Snomax_2.6E-5_Nuk.txt	2	2.6E-5	-9.1	1	1
20140327_111443_Snomax_2.6E-5_Nuk.txt	3	2.6E-5	-8.9	1	1
20140327_111443_Snomax_2.6E-5_Nuk.txt	4	2.6E-5	-9	1	1
20140327_111443_Snomax_2.6E-5_Nuk.txt	5	2.6E-5	-8.7	1	1
20140327_111443_Snomax_2.6E-5_Nuk.txt	6	2.6E-5	-8.6	1	1
20140327_111443_Snomax_2.6E-5_Nuk.txt	7	2.6E-5	-9.1	1	1
20140327_111443_Snomax_2.6E-5_Nuk.txt	8	2.6E-5	-8.6	1	1
20140327_111443_Snomax_2.6E-5_Nuk.txt	9	2.6E-5	-9.1	1	1
20140327_111443_Snomax_2.6E-5_Nuk.txt	10	2.6E-5	-8.6	1	1
20140327_111443_Snomax_2.6E-5_Nuk.txt	11	2.6E-5	-8.8	1	1
20140327_111443_Snomax_2.6E-5_Nuk.txt	12	2.6E-5	-8.9	1	1
20140327_111443_Snomax_2.6E-5_Nuk.txt	13	2.6E-5	-8.7	1	1
20140327_111443_Snomax_2.6E-5_Nuk.txt	14	2.6E-5	-8.7	1	1
20140327_111443_Snomax_2.6E-5_Nuk.txt	15	2.6E-5	-8.2	1	1
20140327_111443_Snomax_2.6E-5_Nuk.txt	16	2.6E-5	-8.8	1	1
20140327_111443_Snomax_2.6E-5_Nuk.txt	17	2.6E-5	-8.6	1	1
20140327_111443_Snomax_2.6E-5_Nuk.txt	18	2.6E-5	-8.3	1	1
20140327_111443_Snomax_2.6E-5_Nuk.txt	19	2.6E-5	-8.5	1	1
20140327_111443_Snomax_2.6E-5_Nuk.txt	20	2.6E-5	-8.4	1	1
20140327_111443_Snomax_2.6E-5_Nuk.txt	21	2.6E-5	-8.7	1	1
20140327_111443_Snomax_2.6E-5_Nuk.txt	22	2.6E-5	-8.5	1	1
20140327_111443_Snomax_2.6E-5_Nuk.txt	23	2.6E-5	-7.6	1	1
20140327_111443_Snomax_2.6E-5_Nuk.txt	24	2.6E-5	-9.4	1	1
20140327_111443_Snomax_2.6E-5_Nuk.txt	25	2.6E-5	-8.5	1	1
20140327_111443_Snomax_2.6E-5_Nuk.txt	26	2.6E-5	-8.6	1	1
20140327_111443_Snomax_2.6E-5_Nuk.txt	27	2.6E-5	-8.3	1	1
20140327_111443_Snomax_2.6E-5_Nuk.txt	28	2.6E-5	-8.6	1	1
20140327_111443_Snomax_2.6E-5_Nuk.txt	29	2.6E-5	-8.6	1	1
20140327_111443_Snomax_2.6E-5_Nuk.txt	30	2.6E-5	-8.7	1	1
20140327_111443_Snomax_2.6E-5_Nuk.txt	31	2.6E-5	-8.8	1	1
20140327_111443_Snomax_2.6E-5_Nuk.txt	32	2.6E-5	-8.7	1	1
20140327_111443_Snomax_2.6E-5_Nuk.txt	33	2.6E-5	-8	1	1
20140327_111443_Snomax_2.6E-5_Nuk.txt	34	2.6E-5	-8.6	1	1
20140327_111443_Snomax_2.6E-5_Nuk.txt	35	2.6E-5	-8.4	1	1
20140327_111443_Snomax_2.6E-5_Nuk.txt	36	2.6E-5	-8.9	1	1
20140327_131301_Snomax_2.6E-5_Nuk.txt	1	2.6E-5	-8.6	1	1
20140327_131301_Snomax_2.6E-5_Nuk.txt	2	2.6E-5	-9.1	1	1
20140327_131301_Snomax_2.6E-5_Nuk.txt	3	2.6E-5	-9.1	1	1
20140327_131301_Snomax_2.6E-5_Nuk.txt	4	2.6E-5	-9.2	1	1
20140327_131301_Snomax_2.6E-5_Nuk.txt	5	2.6E-5	-9.1	1	1
20140327_131301_Snomax_2.6E-5_Nuk.txt	6	2.6E-5	-8.5	1	1
20140327_131301_Snomax_2.6E-5_Nuk.txt	7	2.6E-5	-8.1	1	1
20140327_131301_Snomax_2.6E-5_Nuk.txt	8	2.6E-5	-8.9	1	1
20140327_131301_Snomax_2.6E-5_Nuk.txt	9	2.6E-5	-9.1	1	1
20140327_131301_Snomax_2.6E-5_Nuk.txt	10	2.6E-5	-8.8	1	1
20140327_131301_Snomax_2.6E-5_Nuk.txt	11	2.6E-5	-8.9	1	1
20140327_131301_Snomax_2.6E-5_Nuk.txt	12	2.6E-5	-8.9	1	1
20140327_131301_Snomax_2.6E-5_Nuk.txt	13	2.6E-5	-8.8	1	1
20140327_131301_Snomax_2.6E-5_Nuk.txt	14	2.6E-5	-8.7	1	1
20140327_131301_Snomax_2.6E-5_Nuk.txt	15	2.6E-5	-8.6	1	1
20140327_131301_Snomax_2.6E-5_Nuk.txt	16	2.6E-5	-9	1	1
20140327_131301_Snomax_2.6E-5_Nuk.txt	17	2.6E-5	-8.7	1	1
20140327_131301_Snomax_2.6E-5_Nuk.txt	18	2.6E-5	-8.9	1	1
20140327_131301_Snomax_2.6E-5_Nuk.txt	19	2.6E-5	-8.5	1	1
20140327_131301_Snomax_2.6E-5_Nuk.txt	20	2.6E-5	-8.3	1	1
20140327_131301_Snomax_2.6E-5_Nuk.txt	21	2.6E-5	-9.1	1	1
20140327_131301_Snomax_2.6E-5_Nuk.txt	22	2.6E-5	-8.9	1	1
20140327_131301_Snomax_2.6E-5_Nuk.txt	23	2.6E-5	-9.1	1	1
20140327_131301_Snomax_2.6E-5_Nuk.txt	24	2.6E-5	-8.9	1	1
20140327_131301_Snomax_2.6E-5_Nuk.txt	25	2.6E-5	-9.2	1	1
20140327_131301_Snomax_2.6E-5_Nuk.txt	26	2.6E-5	-9.1	1	1
20140327_131301_Snomax_2.6E-5_Nuk.txt	27	2.6E-5	-8.9	1	1
20140327_131301_Snomax_2.6E-5_Nuk.txt	28	2.6E-5	-8.3	1	1
20140327_131301_Snomax_2.6E-5_Nuk.txt	29	2.6E-5	-8.8	1	1
20140327_131301_Snomax_2.6E-5_Nuk.txt	30	2.6E-5	-9.3	1	1
20140327_131301_Snomax_2.6E-5_Nuk.txt	31	2.6E-5	-8.7	1	1
20140327_131301_Snomax_2.6E-5_Nuk.txt	32	2.6E-5	-9.2	1	1
20140327_131301_Snomax_2.6E-5_Nuk.txt	33	2.6E-5	-8.6	1	1
20140327_131301_Snomax_2.6E-5_Nuk.txt	34	2.6E-5	-8.7	1	1
20140327_131301_Snomax_2.6E-5_Nuk.txt	35	2.6E-5	-8.9	1	1
20140327_131301_Snomax_2.6E-5_Nuk.txt	36	2.6E-5	-8.5	1	1
20140327_141734_Snomax_2.6E-5_Nuk.txt	1	2.6E-5	-8.8	1	1
20140327_141734_Snomax_2.6E-5_Nuk.txt	2	2.6E-5	-8.9	1	1
20140327_141734_Snomax_2.6E-5_Nuk.txt	3	2.6E-5	-8.7	1	1
20140327_141734_Snomax_2.6E-5_Nuk.txt	4	2.6E-5	-8.5	1	1
20140327_141734_Snomax_2.6E-5_Nuk.txt	5	2.6E-5	-8.6	1	1
20140327_141734_Snomax_2.6E-5_Nuk.txt	6	2.6E-5	-9.1	1	1
20140327_141734_Snomax_2.6E-5_Nuk.txt	7	2.6E-5	-8.8	1	1
20140327_141734_Snomax_2.6E-5_Nuk.txt	8	2.6E-5	-8.7	1	1
20140327_141734_Snomax_2.6E-5_Nuk.txt	9	2.6E-5	-8.8	1	1
20140327_141734_Snomax_2.6E-5_Nuk.txt	10	2.6E-5	-8.8	1	1
20140327_141734_Snomax_2.6E-5_Nuk.txt	11	2.6E-5	-8.8	1	1
20140327_141734_Snomax_2.6E-5_Nuk.txt	12	2.6E-5	-8.6	1	1
20140327_141734_Snomax_2.6E-5_Nuk.txt	13	2.6E-5	-9.1	1	1
20140327_141734_Snomax_2.6E-5_Nuk.txt	14	2.6E-5	-8.9	1	1
20140327_141734_Snomax_2.6E-5_Nuk.txt	15	2.6E-5	-9.3	1	1
20140327_141734_Snomax_2.6E-5_Nuk.txt	16	2.6E-5	-9.2	1	1
20140327_141734_Snomax_2.6E-5_Nuk.txt	17	2.6E-5	-9.1	1	1
20140327_141734_Snomax_2.6E-5_Nuk.txt	18	2.6E-5	-8.9	1	1
20140327_141734_Snomax_2.6E-5_Nuk.txt	19	2.6E-5	-8.9	1	1
20140327_141734_Snomax_2.6E-5_Nuk.txt	20	2.6E-5	-8.4	1	1
20140327_141734_Snomax_2.6E-5_Nuk.txt	21	2.6E-5	-9.1	1	1
20140327_141734_Snomax_2.6E-5_Nuk.txt	22	2.6E-5	-8.7	1	1
20140327_141734_Snomax_2.6E-5_Nuk.txt	23	2.6E-5	-8.9	1	1
20140327_141734_Snomax_2.6E-5_Nuk.txt	24	2.6E-5	-8.7	1	1
20140327_141734_Snomax_2.6E-5_Nuk.txt	25	2.6E-5	-8.9	1	1
20140327_141734_Snomax_2.6E-5_Nuk.txt	26	2.6E-5	-9.1	1	1
20140327_141734_Snomax_2.6E-5_Nuk.txt	27	2.6E-5	-9.1	1	1
20140327_141734_Snomax_2.6E-5_Nuk.txt	28	2.6E-5	-9.1	1	1
20140327_141734_Snomax_2.6E-5_Nuk.txt	29	2.6E-5	-8.8	1	1
20140327_141734_Snomax_2.6E-5_Nuk.txt	30	2.6E-5	-8.8	1	1
20140327_141734_Snomax_2.6E-5_Nuk.txt	31	2.6E-5	-8.6	1	1
20140327_141734_Snomax_2.6E-5_Nuk.txt	32	2.6E-5	-9	1	1
20140327_141734_Snomax_2.6E-5_Nuk.txt	33	2.6E-5	-9.1	1	1
20140327_141734_Snomax_2.6E-5_Nuk.txt	34	2.6E-5	-8.9	1	1
20140327_141734_Snomax_2.6E-5_Nuk.txt	35	2.6E-5	-9	1	1
20140327_141734_Snomax_2.6E-5_Nuk.txt	36	2.6E-5	-8.6	1	1
20140310_153541_Snomax_1.0E-4_Nuk.txt	1	1E-4	-8.7	1	1
20140310_153541_Snomax_1.0E-4_Nuk.txt	2	1E-4	-8.4	1	1
20140310_153541_Snomax_1.0E-4_Nuk.txt	3	1E-4	-7.7	1	1
20140310_153541_Snomax_1.0E-4_Nuk.txt	4	1E-4	-8.5	1	1
20140310_153541_Snomax_1.0E-4_Nuk.txt	5	1E-4	-8.1	1	1
20140310_153541_Snomax_1.0E-4_Nuk.txt	6	1E-4	-8.4	1	1
20140310_153541_Snomax_1.0E-4_Nuk.txt	7	1E-4	-8.7	1	1
20140310_153541_Snomax_1.0E-4_Nuk.txt	8	1E-4	-8.2	1	1
20140310_153541_Snomax_1.0E-4_Nuk.txt	9	1E-4	-4.6	1	1
20140310_153541_Snomax_1.0E-4_Nuk.txt	10	1E-4	-8.4	1	1
20140310_153541_Snomax_1.0E-4_Nuk.txt	11	1E-4	-8.4	1	1
20140310_153541_Snomax_1.0E-4_Nuk.txt	12	1E-4	-7.5	1	1
20140310_153541_Snomax_1.0E-4_Nuk.txt	13	1E-4	-5.9	1	1
20140310_153541_Snomax_1.0E-4_Nuk.txt	14	1E-4	-8.6	1	1
20140310_153541_Snomax_1.0E-4_Nuk.txt	15	1E-4	-8.2	1	1
20140310_153541_Snomax_1.0E-4_Nuk.txt	16	1E-4	-5.6	1	1
20140310_153541_Snomax_1.0E-4_Nuk.txt	17	1E-4	-8.4	1	1
20140310_153541_Snomax_1.0E-4_Nuk.txt	18	1E-4	-8.5	1	1
20140310_153541_Snomax_1.0E-4_Nuk.txt	19	1E-4	-8.2	1	1
20140310_153541_Snomax_1.0E-4_Nuk.txt	20	1E-4	-8.2	1	1
20140310_153541_Snomax_1.0E-4_Nuk.txt	21	1E-4	-8.4	1	1
20140310_153541_Snomax_1.0E-4_Nuk.txt	22	1E-4	-8.2	1	1
20140310_153541_Snomax_1.0E-4_Nuk.txt	23	1E-4	-6.6	1	1
20140310_153541_Snomax_1.0E-4_Nuk.txt	24	1E-4	-4.4	1	1
20140310_153541_Snomax_1.0E-4_Nuk.txt	25	1E-4	-4.5	1	1
20140310_153541_Snomax_1.0E-4_Nuk.txt	26	1E-4	-5.7	1	1
20140310_153541_Snomax_1.0E-4_Nuk.txt	27	1E-4	-8.5	1	1
20140310_153541_Snomax_1.0E-4_Nuk.txt	28	1E-4	-8.3	1	1
20140310_153541_Snomax_1.0E-4_Nuk.txt	29	1E-4	-5.7	1	1
20140310_153541_Snomax_1.0E-4_Nuk.txt	30	1E-4	-8.7	1	1
20140310_153541_Snomax_1.0E-4_Nuk.txt	31	1E-4	-8.8	1	1
20140310_153541_Snomax_1.0E-4_Nuk.txt	32	1E-4	-6.2	1	1
20140310_153541_Snomax_1.0E-4_Nuk.txt	33	1E-4	-8.5	1	1
20140310_153541_Snomax_1.0E-4_Nuk.txt	34	1E-4	-8.4	1	1
20140310_153541_Snomax_1.0E-4_Nuk.txt	35	1E-4	-6.5	1	1
20140310_153541_Snomax_1.0E-4_Nuk.txt	36	1E-4	-8	1	1
20140319_161350_Snomax_1.0E-4_Nuk.txt	1	1E-4	-8.6	1	1
20140319_161350_Snomax_1.0E-4_Nuk.txt	2	1E-4	-8.5	1	1
20140319_161350_Snomax_1.0E-4_Nuk.txt	3	1E-4	-8.7	1	1
20140319_161350_Snomax_1.0E-4_Nuk.txt	4	1E-4	-8.6	1	1
20140319_161350_Snomax_1.0E-4_Nuk.txt	5	1E-4	-8.8	1	1
20140319_161350_Snomax_1.0E-4_Nuk.txt	6	1E-4	-8.8	1	1
20140319_161350_Snomax_1.0E-4_Nuk.txt	7	1E-4	-9	1	1
20140319_161350_Snomax_1.0E-4_Nuk.txt	8	1E-4	-8.6	1	1
20140319_161350_Snomax_1.0E-4_Nuk.txt	9	1E-4	-8.7	1	1
20140319_161350_Snomax_1.0E-4_Nuk.txt	10	1E-4	-8.2	1	1
20140319_161350_Snomax_1.0E-4_Nuk.txt	11	1E-4	-8.4	1	1
20140319_161350_Snomax_1.0E-4_Nuk.txt	12	1E-4	-8.5	1	1
20140319_161350_Snomax_1.0E-4_Nuk.txt	13	1E-4	-8.4	1	1
20140319_161350_Snomax_1.0E-4_Nuk.txt	14	1E-4	-8.7	1	1
20140319_161350_Snomax_1.0E-4_Nuk.txt	15	1E-4	-8.4	1	1
20140319_161350_Snomax_1.0E-4_Nuk.txt	16	1E-4	-8.7	1	1
20140319_161350_Snomax_1.0E-4_Nuk.txt	17	1E-4	-8.5	1	1
20140319_161350_Snomax_1.0E-4_Nuk.txt	18	1E-4	-8.4	1	1
20140319_161350_Snomax_1.0E-4_Nuk.txt	19	1E-4	-8.6	1	1
20140319_161350_Snomax_1.0E-4_Nuk.txt	20	1E-4	-8	1	1
20140319_161350_Snomax_1.0E-4_Nuk.txt	21	1E-4	-8.2	1	1
20140319_161350_Snomax_1.0E-4_Nuk.txt	22	1E-4	-8.6	1	1
20140319_161350_Snomax_1.0E-4_Nuk.txt	23	1E-4	-8.9	1	1
20140319_161350_Snomax_1.0E-4_Nuk.txt	24	1E-4	-8.7	1	1
20140319_161350_Snomax_1.0E-4_Nuk.txt	25	1E-4	-8.4	1	1
20140319_161350_Snomax_1.0E-4_Nuk.txt	26	1E-4	-8.9	1	1
20140319_161350_Snomax_1.0E-4_Nuk.txt	27	1E-4	-8.4	1	1
20140319_161350_Snomax_1.0E-4_Nuk.txt	28	1E-4	-8.5	1	1
20140319_161350_Snomax_1.0E-4_Nuk.txt	29	1E-4	-8.4	1	1
20140319_161350_Snomax_1.0E-4_Nuk.txt	30	1E-4	-8.7	1	1
20140319_161350_Snomax_1.0E-4_Nuk.txt	31	1E-4	-8.7	1	1
20140319_161350_Snomax_1.0E-4_Nuk.txt	32	1E-4	-8.5	1	1
20140319_161350_Snomax_1.0E-4_Nuk.txt	33	1E-4	-8.7	1	1
20140319_161350_Snomax_1.0E-4_Nuk.txt	34	1E-4	-8.8	1	1
20140319_161350_Snomax_1.0E-4_Nuk.txt	35	1E-4	-8.7	1	1
20140319_161350_Snomax_1.0E-4_Nuk.txt	36	1E-4	-8.2	1	1
20140321_131200_Snomax_1.0E-4_Nuk.txt	1	1E-4	-8.6	1	1
20140321_131200_Snomax_1.0E-4_Nuk.txt	2	1E-4	-8.8	1	1
20140321_131200_Snomax_1.0E-4_Nuk.txt	3	1E-4	-8.8	1	1
20140321_131200_Snomax_1.0E-4_Nuk.txt	4	1E-4	-8.4	1	1
20140321_131200_Snomax_1.0E-4_Nuk.txt	5	1E-4	-8.4	1	1
20140321_131200_Snomax_1.0E-4_Nuk.txt	6	1E-4	-8.9	1	1
20140321_131200_Snomax_1.0E-4_Nuk.txt	7	1E-4	-9	1	1
20140321_131200_Snomax_1.0E-4_Nuk.txt	8	1E-4	-8.4	1	1
20140321_131200_Snomax_1.0E-4_Nuk.txt	9	1E-4	-9.1	1	1
20140321_131200_Snomax_1.0E-4_Nuk.txt	10	1E-4	-8.6	1	1
20140321_131200_Snomax_1.0E-4_Nuk.txt	11	1E-4	-8.3	1	1
20140321_131200_Snomax_1.0E-4_Nuk.txt	12	1E-4	-8.6	1	1
20140321_131200_Snomax_1.0E-4_Nuk.txt	13	1E-4	-8.4	1	1
20140321_131200_Snomax_1.0E-4_Nuk.txt	14	1E-4	-8.2	1	1
20140321_131200_Snomax_1.0E-4_Nuk.txt	15	1E-4	-8.3	1	1
20140321_131200_Snomax_1.0E-4_Nuk.txt	16	1E-4	-8.6	1	1
20140321_131200_Snomax_1.0E-4_Nuk.txt	17	1E-4	-8.5	1	1
20140321_131200_Snomax_1.0E-4_Nuk.txt	18	1E-4	-8.9	1	1
20140321_131200_Snomax_1.0E-4_Nuk.txt	19	1E-4	-8.7	1	1
20140321_131200_Snomax_1.0E-4_Nuk.txt	20	1E-4	-8.4	1	1
20140321_131200_Snomax_1.0E-4_Nuk.txt	21	1E-4	-8.8	1	1
20140321_131200_Snomax_1.0E-4_Nuk.txt	22	1E-4	-8.9	1	1
20140321_131200_Snomax_1.0E-4_Nuk.txt	23	1E-4	-8.8	1	1
20140321_131200_Snomax_1.0E-4_Nuk.txt	24	1E-4	-8.9	1	1
20140321_131200_Snomax_1.0E-4_Nuk.txt	25	1E-4	-8.8	1	1
20140321_131200_Snomax_1.0E-4_Nuk.txt	26	1E-4	-8.4	1	1
20140321_131200_Snomax_1.0E-4_Nuk.txt	27	1E-4	-8.6	1	1
20140321_131200_Snomax_1.0E-4_Nuk.txt	28	1E-4	-8.4	1	1
20140321_131200_Snomax_1.0E-4_Nuk.txt	29	1E-4	-8.9	1	1
20140321_131200_Snomax_1.0E-4_Nuk.txt	30	1E-4	-8.6	1	1
20140321_131200_Snomax_1.0E-4_Nuk.txt	31	1E-4	-9.2	1	1
20140321_131200_Snomax_1.0E-4_Nuk.txt	32	1E-4	-8.7	1	1
20140321_131200_Snomax_1.0E-4_Nuk.txt	33	1E-4	-8.8	1	1
20140321_131200_Snomax_1.0E-4_Nuk.txt	34	1E-4	-8.7	1	1
20140321_131200_Snomax_1.0E-4_Nuk.txt	35	1E-4	-8.5	1	1
20140321_131200_Snomax_1.0E-4_Nuk.txt	36	1E-4	-9	1	1
20140310_191801_Snomax_1.0E-3_Nuk.txt	1	0.001	-6.5	1	1
20140310_191801_Snomax_1.0E-3_Nuk.txt	2	0.001	-6.2	1	1
20140310_191801_Snomax_1.0E-3_Nuk.txt	3	0.001	-6.5	1	1
20140310_191801_Snomax_1.0E-3_Nuk.txt	4	0.001	-7	1	1
20140310_191801_Snomax_1.0E-3_Nuk.txt	5	0.001	-4.9	1	1
20140310_191801_Snomax_1.0E-3_Nuk.txt	6	0.001	-4.8	1	1
20140310_191801_Snomax_1.0E-3_Nuk.txt	7	0.001	-5.2	1	1
20140310_191801_Snomax_1.0E-3_Nuk.txt	8	0.001	-7.1	1	1
20140310_191801_Snomax_1.0E-3_Nuk.txt	9	0.001	-5.2	1	1
20140310_191801_Snomax_1.0E-3_Nuk.txt	10	0.001	-5.7	1	1
20140310_191801_Snomax_1.0E-3_Nuk.txt	11	0.001	-4.2	1	1
20140310_191801_Snomax_1.0E-3_Nuk.txt	12	0.001	-7.3	1	1
20140310_191801_Snomax_1.0E-3_Nuk.txt	13	0.001	-7.4	1	1
20140310_191801_Snomax_1.0E-3_Nuk.txt	14	0.001	-6.4	1	1
20140310_191801_Snomax_1.0E-3_Nuk.txt	15	0.001	-4.3	1	1
20140310_191801_Snomax_1.0E-3_Nuk.txt	16	0.001	-5.5	1	1
20140310_191801_Snomax_1.0E-3_Nuk.txt	17	0.001	-7	1	1
20140310_191801_Snomax_1.0E-3_Nuk.txt	18	0.001	-6.5	1	1
20140310_191801_Snomax_1.0E-3_Nuk.txt	19	0.001	-7.9	1	1
20140310_191801_Snomax_1.0E-3_Nuk.txt	20	0.001	-4.9	1	1
20140310_191801_Snomax_1.0E-3_Nuk.txt	21	0.001	-6.1	1	1
20140310_191801_Snomax_1.0E-3_Nuk.txt	22	0.001	-7.2	1	1
20140310_191801_Snomax_1.0E-3_Nuk.txt	23	0.001	-5.1	1	1
20140310_191801_Snomax_1.0E-3_Nuk.txt	24	0.001	-4.7	1	1
20140310_191801_Snomax_1.0E-3_Nuk.txt	25	0.001	-4.2	1	1
20140310_191801_Snomax_1.0E-3_Nuk.txt	26	0.001	-4.8	1	1
20140310_191801_Snomax_1.0E-3_Nuk.txt	27	0.001	-5.4	1	1
20140310_191801_Snomax_1.0E-3_Nuk.txt	28	0.001	-6.6	1	1
20140310_191801_Snomax_1.0E-3_Nuk.txt	29	0.001	-4.8	1	1
20140310_191801_Snomax_1.0E-3_Nuk.txt	30	0.001	-8.1	1	1
20140310_191801_Snomax_1.0E-3_Nuk.txt	31	0.001	-4.9	1	1
20140310_191801_Snomax_1.0E-3_Nuk.txt	32	0.001	-3.9	1	1
20140310_191801_Snomax_1.0E-3_Nuk.txt	33	0.001	-5	1	1
20140310_191801_Snomax_1.0E-3_Nuk.txt	34	0.001	-5.6	1	1
20140310_191801_Snomax_1.0E-3_Nuk.txt	35	0.001	-6	1	1
20140310_191801_Snomax_1.0E-3_Nuk.txt	36	0.001	-5.7	1	1
20140319_184306_Snomax_1.0E-3_Nuk.txt	1	0.001	-5.5	1	1
20140319_184306_Snomax_1.0E-3_Nuk.txt	2	0.001	-8.2	1	1
20140319_184306_Snomax_1.0E-3_Nuk.txt	3	0.001	-8.4	1	1
20140319_184306_Snomax_1.0E-3_Nuk.txt	4	0.001	-8.2	1	1
20140319_184306_Snomax_1.0E-3_Nuk.txt	5	0.001	-8.4	1	1
20140319_184306_Snomax_1.0E-3_Nuk.txt	6	0.001	-8.4	1	1
20140319_184306_Snomax_1.0E-3_Nuk.txt	7	0.001	-8.3	1	1
20140319_184306_Snomax_1.0E-3_Nuk.txt	8	0.001	-7.3	1	1
20140319_184306_Snomax_1.0E-3_Nuk.txt	9	0.001	-8.2	1	1
20140319_184306_Snomax_1.0E-3_Nuk.txt	10	0.001	-6	1	1
20140319_184306_Snomax_1.0E-3_Nuk.txt	11	0.001	-7.9	1	1
20140319_184306_Snomax_1.0E-3_Nuk.txt	12	0.001	-8.4	1	1
20140319_184306_Snomax_1.0E-3_Nuk.txt	13	0.001	-8.2	1	1
20140319_184306_Snomax_1.0E-3_Nuk.txt	14	0.001	-8.1	1	1
20140319_184306_Snomax_1.0E-3_Nuk.txt	15	0.001	-8.1	1	1
20140319_184306_Snomax_1.0E-3_Nuk.txt	16	0.001	-8.4	1	1
20140319_184306_Snomax_1.0E-3_Nuk.txt	17	0.001	-8.1	1	1
20140319_184306_Snomax_1.0E-3_Nuk.txt	18	0.001	-8	1	1
20140319_184306_Snomax_1.0E-3_Nuk.txt	19	0.001	-6	1	1
20140319_184306_Snomax_1.0E-3_Nuk.txt	20	0.001	-8.2	1	1
20140319_184306_Snomax_1.0E-3_Nuk.txt	21	0.001	-8.5	1	1
20140319_184306_Snomax_1.0E-3_Nuk.txt	22	0.001	-7.2	1	1
20140319_184306_Snomax_1.0E-3_Nuk.txt	23	0.001	-7.8	1	1
20140319_184306_Snomax_1.0E-3_Nuk.txt	24	0.001	-7.6	1	1
20140319_184306_Snomax_1.0E-3_Nuk.txt	25	0.001	-8.1	1	1
20140319_184306_Snomax_1.0E-3_Nuk.txt	26	0.001	-8.5	1	1
20140319_184306_Snomax_1.0E-3_Nuk.txt	27	0.001	-8.2	1	1
20140319_184306_Snomax_1.0E-3_Nuk.txt	28	0.001	-8.4	1	1
20140319_184306_Snomax_1.0E-3_Nuk.txt	29	0.001	-8.2	1	1
20140319_184306_Snomax_1.0E-3_Nuk.txt	30	0.001	-8.4	1	1
20140319_184306_Snomax_1.0E-3_Nuk.txt	31	0.001	-6.8	1	1
20140319_184306_Snomax_1.0E-3_Nuk.txt	32	0.001	-8.3	1	1
20140319_184306_Snomax_1.0E-3_Nuk.txt	33	0.001	-8.3	1	1
20140319_184306_Snomax_1.0E-3_Nuk.txt	34	0.001	-8.2	1	1
20140319_184306_Snomax_1.0E-3_Nuk.txt	35	0.001	-6.5	1	1
20140319_184306_Snomax_1.0E-3_Nuk.txt	36	0.001	-7.1	1	1
20140321_153046_Snomax_1.0E-3_Nuk.txt	1	0.001	-8.7	1	1
20140321_153046_Snomax_1.0E-3_Nuk.txt	2	0.001	-8.3	1	1
20140321_153046_Snomax_1.0E-3_Nuk.txt	3	0.001	-8.2	1	1
20140321_153046_Snomax_1.0E-3_Nuk.txt	4	0.001	-5.5	1	1
20140321_153046_Snomax_1.0E-3_Nuk.txt	5	0.001	-8.3	1	1
20140321_153046_Snomax_1.0E-3_Nuk.txt	6	0.001	-8	1	1
20140321_153046_Snomax_1.0E-3_Nuk.txt	7	0.001	-8.5	1	1
20140321_153046_Snomax_1.0E-3_Nuk.txt	8	0.001	-6.5	1	1
20140321_153046_Snomax_1.0E-3_Nuk.txt	9	0.001	-5	1	1
20140321_153046_Snomax_1.0E-3_Nuk.txt	10	0.001	-4.3	1	1
20140321_153046_Snomax_1.0E-3_Nuk.txt	11	0.001	-8.3	1	1
20140321_153046_Snomax_1.0E-3_Nuk.txt	12	0.001	-6.1	1	1
20140321_153046_Snomax_1.0E-3_Nuk.txt	13	0.001	-7	1	1
20140321_153046_Snomax_1.0E-3_Nuk.txt	14	0.001	-8.3	1	1
20140321_153046_Snomax_1.0E-3_Nuk.txt	15	0.001	-7.5	1	1
20140321_153046_Snomax_1.0E-3_Nuk.txt	16	0.001	-8.5	1	1
20140321_153046_Snomax_1.0E-3_Nuk.txt	17	0.001	-8.3	1	1
20140321_153046_Snomax_1.0E-3_Nuk.txt	18	0.001	-8.1	1	1
20140321_153046_Snomax_1.0E-3_Nuk.txt	19	0.001	-4.3	1	1
20140321_153046_Snomax_1.0E-3_Nuk.txt	20	0.001	-8	1	1
20140321_153046_Snomax_1.0E-3_Nuk.txt	21	0.001	-7.9	1	1
20140321_153046_Snomax_1.0E-3_Nuk.txt	22	0.001	-5	1	1
20140321_153046_Snomax_1.0E-3_Nuk.txt	23	0.001	-8.2	1	1
20140321_153046_Snomax_1.0E-3_Nuk.txt	24	0.001	-8.7	1	1
20140321_153046_Snomax_1.0E-3_Nuk.txt	25	0.001	-8.7	1	1
20140321_153046_Snomax_1.0E-3_Nuk.txt	26	0.001	-6.3	1	1
20140321_153046_Snomax_1.0E-3_Nuk.txt	27	0.001	-8.2	1	1
20140321_153046_Snomax_1.0E-3_Nuk.txt	28	0.001	-8	1	1
20140321_153046_Snomax_1.0E-3_Nuk.txt	29	0.001	-5.5	1	1
20140321_153046_Snomax_1.0E-3_Nuk.txt	30	0.001	-8.7	1	1
20140321_153046_Snomax_1.0E-3_Nuk.txt	31	0.001	-6.1	1	1
20140321_153046_Snomax_1.0E-3_Nuk.txt	32	0.001	-7.2	1	1
20140321_153046_Snomax_1.0E-3_Nuk.txt	33	0.001	-5.3	1	1
20140321_153046_Snomax_1.0E-3_Nuk.txt	34	0.001	-8.3	1	1
20140321_153046_Snomax_1.0E-3_Nuk.txt	35	0.001	-8.2	1	1
20140321_153046_Snomax_1.0E-3_Nuk.txt	36	0.001	-8.5	1	1
20140310_144534_Snomax_1.0E-2_Nuk.txt	1	0.01	-4.1	1	1
20140310_144534_Snomax_1.0E-2_Nuk.txt	2	0.01	-4.1	1	1
20140310_144534_Snomax_1.0E-2_Nuk.txt	3	0.01	-4.3	1	1
20140310_144534_Snomax_1.0E-2_Nuk.txt	4	0.01	-3.9	1	1
20140310_144534_Snomax_1.0E-2_Nuk.txt	5	0.01	-4.6	1	1
20140310_144534_Snomax_1.0E-2_Nuk.txt	6	0.01	-4.3	1	1
20140310_144534_Snomax_1.0E-2_Nuk.txt	7	0.01	-4.1	1	1
20140310_144534_Snomax_1.0E-2_Nuk.txt	8	0.01	-4.1	1	1
20140310_144534_Snomax_1.0E-2_Nuk.txt	9	0.01	-4.4	1	1
20140310_144534_Snomax_1.0E-2_Nuk.txt	10	0.01	-4.1	1	1
20140310_144534_Snomax_1.0E-2_Nuk.txt	11	0.01	-4.5	1	1
20140310_144534_Snomax_1.0E-2_Nuk.txt	12	0.01	-4.4	1	1
20140310_144534_Snomax_1.0E-2_Nuk.txt	13	0.01	-4.3	1	1
20140310_144534_Snomax_1.0E-2_Nuk.txt	14	0.01	-3.9	1	1
20140310_144534_Snomax_1.0E-2_Nuk.txt	15	0.01	-4.1	1	1
20140310_144534_Snomax_1.0E-2_Nuk.txt	16	0.01	-3.9	1	1
20140310_144534_Snomax_1.0E-2_Nuk.txt	17	0.01	-4.1	1	1
20140310_144534_Snomax_1.0E-2_Nuk.txt	18	0.01	-4.6	1	1
20140310_144534_Snomax_1.0E-2_Nuk.txt	19	0.01	-4.6	1	1
20140310_144534_Snomax_1.0E-2_Nuk.txt	20	0.01	-3.9	1	1
20140310_144534_Snomax_1.0E-2_Nuk.txt	21	0.01	-4	1	1
20140310_144534_Snomax_1.0E-2_Nuk.txt	22	0.01	-3.9	1	1
20140310_144534_Snomax_1.0E-2_Nuk.txt	23	0.01	-4.3	1	1
20140310_144534_Snomax_1.0E-2_Nuk.txt	24	0.01	-4	1	1
20140310_144534_Snomax_1.0E-2_Nuk.txt	25	0.01	-4.1	1	1
20140310_144534_Snomax_1.0E-2_Nuk.txt	26	0.01	-4	1	1
20140310_144534_Snomax_1.0E-2_Nuk.txt	27	0.01	-4.1	1	1
20140310_144534_Snomax_1.0E-2_Nuk.txt	28	0.01	-4.4	1	1
20140310_144534_Snomax_1.0E-2_Nuk.txt	29	0.01	-3.6	1	1
20140310_144534_Snomax_1.0E-2_Nuk.txt	30	0.01	-4.1	1	1
20140310_144534_Snomax_1.0E-2_Nuk.txt	31	0.01	-4.3	1	1
20140310_144534_Snomax_1.0E-2_Nuk.txt	32	0.01	-4.3	1	1
20140310_144534_Snomax_1.0E-2_Nuk.txt	33	0.01	-4.4	1	1
20140310_144534_Snomax_1.0E-2_Nuk.txt	34	0.01	-4	1	1
20140310_144534_Snomax_1.0E-2_Nuk.txt	35	0.01	-4.3	1	1
20140310_144534_Snomax_1.0E-2_Nuk.txt	36	0.01	-4.2	1	1
20140319_170426_Snomax_1.0E-2_Nuk.txt	1	0.01	-4	1	1
20140319_170426_Snomax_1.0E-2_Nuk.txt	2	0.01	-5.4	1	1
20140319_170426_Snomax_1.0E-2_Nuk.txt	3	0.01	-5.8	1	1
20140319_170426_Snomax_1.0E-2_Nuk.txt	4	0.01	-4.2	1	1
20140319_170426_Snomax_1.0E-2_Nuk.txt	5	0.01	-4.3	1	1
20140319_170426_Snomax_1.0E-2_Nuk.txt	6	0.01	-4.6	1	1
20140319_170426_Snomax_1.0E-2_Nuk.txt	7	0.01	-5	1	1
20140319_170426_Snomax_1.0E-2_Nuk.txt	8	0.01	-3.9	1	1
20140319_170426_Snomax_1.0E-2_Nuk.txt	9	0.01	-4.9	1	1
20140319_170426_Snomax_1.0E-2_Nuk.txt	10	0.01	-4.7	1	1
20140319_170426_Snomax_1.0E-2_Nuk.txt	11	0.01	-4.1	1	1
20140319_170426_Snomax_1.0E-2_Nuk.txt	12	0.01	-4.6	1	1
20140319_170426_Snomax_1.0E-2_Nuk.txt	13	0.01	-3.9	1	1
20140319_170426_Snomax_1.0E-2_Nuk.txt	14	0.01	-5.2	1	1
20140319_170426_Snomax_1.0E-2_Nuk.txt	15	0.01	-4.6	1	1
20140319_170426_Snomax_1.0E-2_Nuk.txt	16	0.01	-4.4	1	1
20140319_170426_Snomax_1.0E-2_Nuk.txt	17	0.01	-4.4	1	1
20140319_170426_Snomax_1.0E-2_Nuk.txt	18	0.01	-5	1	1
20140319_170426_Snomax_1.0E-2_Nuk.txt	19	0.01	-5	1	1
20140319_170426_Snomax_1.0E-2_Nuk.txt	20	0.01	-4.6	1	1
20140319_170426_Snomax_1.0E-2_Nuk.txt	21	0.01	-4.1	1	1
20140319_170426_Snomax_1.0E-2_Nuk.txt	22	0.01	-4.5	1	1
20140319_170426_Snomax_1.0E-2_Nuk.txt	23	0.01	-4	1	1
20140319_170426_Snomax_1.0E-2_Nuk.txt	24	0.01	-4.4	1	1
20140319_170426_Snomax_1.0E-2_Nuk.txt	25	0.01	-4.7	1	1
20140319_170426_Snomax_1.0E-2_Nuk.txt	26	0.01	-4.5	1	1
20140319_170426_Snomax_1.0E-2_Nuk.txt	27	0.01	-4.5	1	1
20140319_170426_Snomax_1.0E-2_Nuk.txt	28	0.01	-4.1	1	1
20140319_170426_Snomax_1.0E-2_Nuk.txt	29	0.01	-4.3	1	1
20140319_170426_Snomax_1.0E-2_Nuk.txt	30	0.01	-4.5	1	1
20140319_170426_Snomax_1.0E-2_Nuk.txt	31	0.01	-5.8	1	1
20140319_170426_Snomax_1.0E-2_Nuk.txt	32	0.01	-4.8	1	1
20140319_170426_Snomax_1.0E-2_Nuk.txt	33	0.01	-4.9	1	1
20140319_170426_Snomax_1.0E-2_Nuk.txt	34	0.01	-4.5	1	1
20140319_170426_Snomax_1.0E-2_Nuk.txt	35	0.01	-4.5	1	1
20140319_170426_Snomax_1.0E-2_Nuk.txt	36	0.01	-4.5	1	1
20140321_140217_Snomax_1.0E-2_Nuk.txt	1	0.01	-4.7	1	1
20140321_140217_Snomax_1.0E-2_Nuk.txt	2	0.01	-4.5	1	1
20140321_140217_Snomax_1.0E-2_Nuk.txt	3	0.01	-4.7	1	1
20140321_140217_Snomax_1.0E-2_Nuk.txt	4	0.01	-4.1	1	1
20140321_140217_Snomax_1.0E-2_Nuk.txt	5	0.01	-4.2	1	1
20140321_140217_Snomax_1.0E-2_Nuk.txt	6	0.01	-5	1	1
20140321_140217_Snomax_1.0E-2_Nuk.txt	7	0.01	-4.4	1	1
20140321_140217_Snomax_1.0E-2_Nuk.txt	8	0.01	-4.1	1	1
20140321_140217_Snomax_1.0E-2_Nuk.txt	9	0.01	-4.4	1	1
20140321_140217_Snomax_1.0E-2_Nuk.txt	10	0.01	-4.2	1	1
20140321_140217_Snomax_1.0E-2_Nuk.txt	11	0.01	-4.8	1	1
20140321_140217_Snomax_1.0E-2_Nuk.txt	12	0.01	-4.1	1	1
20140321_140217_Snomax_1.0E-2_Nuk.txt	13	0.01	-4.7	1	1
20140321_140217_Snomax_1.0E-2_Nuk.txt	14	0.01	-4.1	1	1
20140321_140217_Snomax_1.0E-2_Nuk.txt	15	0.01	-4.5	1	1
20140321_140217_Snomax_1.0E-2_Nuk.txt	16	0.01	-4.4	1	1
20140321_140217_Snomax_1.0E-2_Nuk.txt	17	0.01	-4.6	1	1
20140321_140217_Snomax_1.0E-2_Nuk.txt	18	0.01	-4.7	1	1
20140321_140217_Snomax_1.0E-2_Nuk.txt	19	0.01	-4.3	1	1
20140321_140217_Snomax_1.0E-2_Nuk.txt	20	0.01	-4.6	1	1
20140321_140217_Snomax_1.0E-2_Nuk.txt	21	0.01	-4.1	1	1
20140321_140217_Snomax_1.0E-2_Nuk.txt	22	0.01	-5	1	1
20140321_140217_Snomax_1.0E-2_Nuk.txt	23	0.01	-4.1	1	1
20140321_140217_Snomax_1.0E-2_Nuk.txt	24	0.01	-4.8	1	1
20140321_140217_Snomax_1.0E-2_Nuk.txt	25	0.01	-4.2	1	1
20140321_140217_Snomax_1.0E-2_Nuk.txt	26	0.01	-4.5	1	1
20140321_140217_Snomax_1.0E-2_Nuk.txt	27	0.01	-4.2	1	1
20140321_140217_Snomax_1.0E-2_Nuk.txt	28	0.01	-5	1	1
20140321_140217_Snomax_1.0E-2_Nuk.txt	29	0.01	-4.6	1	1
20140321_140217_Snomax_1.0E-2_Nuk.txt	30	0.01	-4.3	1	1
20140321_140217_Snomax_1.0E-2_Nuk.txt	31	0.01	-5.3	1	1
20140321_140217_Snomax_1.0E-2_Nuk.txt	32	0.01	-4.2	1	1
20140321_140217_Snomax_1.0E-2_Nuk.txt	33	0.01	-4.2	1	1
20140321_140217_Snomax_1.0E-2_Nuk.txt	34	0.01	-4.5	1	1
20140321_140217_Snomax_1.0E-2_Nuk.txt	35	0.01	-4.3	1	1
20140321_140217_Snomax_1.0E-2_Nuk.txt	36	0.01	-4.7	1	1
20140310_200443_Snomax_1.0E-1_Post_Nuk.txt	1	0.1	-4.3	1	1
20140310_200443_Snomax_1.0E-1_Post_Nuk.txt	2	0.1	-3.9	1	1
20140310_200443_Snomax_1.0E-1_Post_Nuk.txt	3	0.1	-4	1	1
20140310_200443_Snomax_1.0E-1_Post_Nuk.txt	4	0.1	-4	1	1
20140310_200443_Snomax_1.0E-1_Post_Nuk.txt	5	0.1	-4.2	1	1
20140310_200443_Snomax_1.0E-1_Post_Nuk.txt	6	0.1	-4.3	1	1
20140310_200443_Snomax_1.0E-1_Post_Nuk.txt	7	0.1	-4	1	1
20140310_200443_Snomax_1.0E-1_Post_Nuk.txt	8	0.1	-4.2	1	1
20140310_200443_Snomax_1.0E-1_Post_Nuk.txt	9	0.1	-4.1	1	1
20140310_200443_Snomax_1.0E-1_Post_Nuk.txt	10	0.1	-4.1	1	1
20140310_200443_Snomax_1.0E-1_Post_Nuk.txt	11	0.1	-4	1	1
20140310_200443_Snomax_1.0E-1_Post_Nuk.txt	12	0.1	-4.1	1	1
20140310_200443_Snomax_1.0E-1_Post_Nuk.txt	13	0.1	-3.8	1	1
20140310_200443_Snomax_1.0E-1_Post_Nuk.txt	14	0.1	-3.9	1	1
20140310_200443_Snomax_1.0E-1_Post_Nuk.txt	15	0.1	-3.9	1	1
20140310_200443_Snomax_1.0E-1_Post_Nuk.txt	16	0.1	-4	1	1
20140310_200443_Snomax_1.0E-1_Post_Nuk.txt	17	0.1	-3.9	1	1
20140310_200443_Snomax_1.0E-1_Post_Nuk.txt	18	0.1	-4	1	1
20140310_200443_Snomax_1.0E-1_Post_Nuk.txt	19	0.1	-4	1	1
20140310_200443_Snomax_1.0E-1_Post_Nuk.txt	20	0.1	-4	1	1
20140310_200443_Snomax_1.0E-1_Post_Nuk.txt	21	0.1	-4	1	1
20140310_200443_Snomax_1.0E-1_Post_Nuk.txt	22	0.1	-4.1	1	1
20140310_200443_Snomax_1.0E-1_Post_Nuk.txt	23	0.1	-4	1	1
20140310_200443_Snomax_1.0E-1_Post_Nuk.txt	24	0.1	-4	1	1
20140310_200443_Snomax_1.0E-1_Post_Nuk.txt	25	0.1	-4.1	1	1
20140310_200443_Snomax_1.0E-1_Post_Nuk.txt	26	0.1	-4.1	1	1
20140310_200443_Snomax_1.0E-1_Post_Nuk.txt	27	0.1	-3.9	1	1
20140310_200443_Snomax_1.0E-1_Post_Nuk.txt	28	0.1	-4	1	1
20140310_200443_Snomax_1.0E-1_Post_Nuk.txt	29	0.1	-3.8	1	1
20140310_200443_Snomax_1.0E-1_Post_Nuk.txt	30	0.1	-4	1	1
20140310_200443_Snomax_1.0E-1_Post_Nuk.txt	31	0.1	-4	1	1
20140310_200443_Snomax_1.0E-1_Post_Nuk.txt	32	0.1	-4.3	1	1
20140310_200443_Snomax_1.0E-1_Post_Nuk.txt	33	0.1	-4.1	1	1
20140310_200443_Snomax_1.0E-1_Post_Nuk.txt	34	0.1	-3.9	1	1
20140310_200443_Snomax_1.0E-1_Post_Nuk.txt	35	0.1	-4	1	1
20140310_200443_Snomax_1.0E-1_Post_Nuk.txt	36	0.1	-4.2	1	1
20140319_193805_Snomax_1.0E-1_Post_Nuk.txt	1	0.1	-4.2	1	1
20140319_193805_Snomax_1.0E-1_Post_Nuk.txt	2	0.1	-4.3	1	1
20140319_193805_Snomax_1.0E-1_Post_Nuk.txt	3	0.1	-4.3	1	1
20140319_193805_Snomax_1.0E-1_Post_Nuk.txt	4	0.1	-4.3	1	1
20140319_193805_Snomax_1.0E-1_Post_Nuk.txt	5	0.1	-4.1	1	1
20140319_193805_Snomax_1.0E-1_Post_Nuk.txt	6	0.1	-4.4	1	1
20140319_193805_Snomax_1.0E-1_Post_Nuk.txt	7	0.1	-4.6	1	1
20140319_193805_Snomax_1.0E-1_Post_Nuk.txt	8	0.1	-4.5	1	1
20140319_193805_Snomax_1.0E-1_Post_Nuk.txt	9	0.1	-4.5	1	1
20140319_193805_Snomax_1.0E-1_Post_Nuk.txt	10	0.1	-3.9	1	1
20140319_193805_Snomax_1.0E-1_Post_Nuk.txt	11	0.1	-4.7	1	1
20140319_193805_Snomax_1.0E-1_Post_Nuk.txt	12	0.1	-4.6	1	1
20140319_193805_Snomax_1.0E-1_Post_Nuk.txt	13	0.1	-4.6	1	1
20140319_193805_Snomax_1.0E-1_Post_Nuk.txt	14	0.1	-4.2	1	1
20140319_193805_Snomax_1.0E-1_Post_Nuk.txt	15	0.1	-4.4	1	1
20140319_193805_Snomax_1.0E-1_Post_Nuk.txt	16	0.1	-4.4	1	1
20140319_193805_Snomax_1.0E-1_Post_Nuk.txt	17	0.1	-4.6	1	1
20140319_193805_Snomax_1.0E-1_Post_Nuk.txt	18	0.1	-4.6	1	1
20140319_193805_Snomax_1.0E-1_Post_Nuk.txt	19	0.1	-4.5	1	1
20140319_193805_Snomax_1.0E-1_Post_Nuk.txt	20	0.1	-4.1	1	1
20140319_193805_Snomax_1.0E-1_Post_Nuk.txt	21	0.1	-4	1	1
20140319_193805_Snomax_1.0E-1_Post_Nuk.txt	22	0.1	-4.4	1	1
20140319_193805_Snomax_1.0E-1_Post_Nuk.txt	23	0.1	-4.3	1	1
20140319_193805_Snomax_1.0E-1_Post_Nuk.txt	24	0.1	-4.5	1	1
20140319_193805_Snomax_1.0E-1_Post_Nuk.txt	25	0.1	-4.9	1	1
20140319_193805_Snomax_1.0E-1_Post_Nuk.txt	26	0.1	-4.2	1	1
20140319_193805_Snomax_1.0E-1_Post_Nuk.txt	27	0.1	-4.3	1	1
20140319_193805_Snomax_1.0E-1_Post_Nuk.txt	28	0.1	-4.5	1	1
20140319_193805_Snomax_1.0E-1_Post_Nuk.txt	29	0.1	-4.3	1	1
20140319_193805_Snomax_1.0E-1_Post_Nuk.txt	30	0.1	-4.6	1	1
20140319_193805_Snomax_1.0E-1_Post_Nuk.txt	31	0.1	-4.5	1	1
20140319_193805_Snomax_1.0E-1_Post_Nuk.txt	32	0.1	-4.8	1	1
20140319_193805_Snomax_1.0E-1_Post_Nuk.txt	33	0.1	-4.2	1	1
20140319_193805_Snomax_1.0E-1_Post_Nuk.txt	34	0.1	-4.2	1	1
20140319_193805_Snomax_1.0E-1_Post_Nuk.txt	35	0.1	-4.6	1	1
20140319_193805_Snomax_1.0E-1_Post_Nuk.txt	36	0.1	-4.4	1	1
20140321_161546_Snomax_1.0E-1_Nuk.txt	1	0.1	-4.3	1	1
20140321_161546_Snomax_1.0E-1_Nuk.txt	2	0.1	-4.3	1	1
20140321_161546_Snomax_1.0E-1_Nuk.txt	3	0.1	-4.5	1	1
20140321_161546_Snomax_1.0E-1_Nuk.txt	4	0.1	-4.2	1	1
20140321_161546_Snomax_1.0E-1_Nuk.txt	5	0.1	-4.5	1	1
20140321_161546_Snomax_1.0E-1_Nuk.txt	6	0.1	-4.2	1	1
20140321_161546_Snomax_1.0E-1_Nuk.txt	7	0.1	-4.5	1	1
20140321_161546_Snomax_1.0E-1_Nuk.txt	8	0.1	-4.1	1	1
20140321_161546_Snomax_1.0E-1_Nuk.txt	9	0.1	-4.2	1	1
20140321_161546_Snomax_1.0E-1_Nuk.txt	10	0.1	-4.6	1	1
20140321_161546_Snomax_1.0E-1_Nuk.txt	11	0.1	-4.2	1	1
20140321_161546_Snomax_1.0E-1_Nuk.txt	12	0.1	-4.3	1	1
20140321_161546_Snomax_1.0E-1_Nuk.txt	13	0.1	-4.2	1	1
20140321_161546_Snomax_1.0E-1_Nuk.txt	14	0.1	-4.2	1	1
20140321_161546_Snomax_1.0E-1_Nuk.txt	15	0.1	-4.4	1	1
20140321_161546_Snomax_1.0E-1_Nuk.txt	16	0.1	-4.3	1	1
20140321_161546_Snomax_1.0E-1_Nuk.txt	17	0.1	-4.3	1	1
20140321_161546_Snomax_1.0E-1_Nuk.txt	18	0.1	-4.2	1	1
20140321_161546_Snomax_1.0E-1_Nuk.txt	19	0.1	-4.3	1	1
20140321_161546_Snomax_1.0E-1_Nuk.txt	20	0.1	-4	1	1
20140321_161546_Snomax_1.0E-1_Nuk.txt	21	0.1	-4.5	1	1
20140321_161546_Snomax_1.0E-1_Nuk.txt	22	0.1	-4.3	1	1
20140321_161546_Snomax_1.0E-1_Nuk.txt	23	0.1	-4.5	1	1
20140321_161546_Snomax_1.0E-1_Nuk.txt	24	0.1	-4.6	1	1
20140321_161546_Snomax_1.0E-1_Nuk.txt	25	0.1	-4.6	1	1
20140321_161546_Snomax_1.0E-1_Nuk.txt	26	0.1	-4.5	1	1
20140321_161546_Snomax_1.0E-1_Nuk.txt	27	0.1	-4.2	1	1
20140321_161546_Snomax_1.0E-1_Nuk.txt	28	0.1	-4.5	1	1
20140321_161546_Snomax_1.0E-1_Nuk.txt	29	0.1	-4.2	1	1
20140321_161546_Snomax_1.0E-1_Nuk.txt	30	0.1	-4.2	1	1
20140321_161546_Snomax_1.0E-1_Nuk.txt	31	0.1	-4	1	1
20140321_161546_Snomax_1.0E-1_Nuk.txt	32	0.1	-4.4	1	1
20140321_161546_Snomax_1.0E-1_Nuk.txt	33	0.1	-4.3	1	1
20140321_161546_Snomax_1.0E-1_Nuk.txt	34	0.1	-4.3	1	1
20140321_161546_Snomax_1.0E-1_Nuk.txt	35	0.1	-4.3	1	1
20140321_161546_Snomax_1.0E-1_Nuk.txt	36	0.1	-4.4	1	1
20140310_140417_Snomax_1.0E+0_Nuk.txt	1	1	-3.7	1	1
20140310_140417_Snomax_1.0E+0_Nuk.txt	2	1	-3.8	1	1
20140310_140417_Snomax_1.0E+0_Nuk.txt	3	1	-3.4	1	1
20140310_140417_Snomax_1.0E+0_Nuk.txt	4	1	-3.7	1	1
20140310_140417_Snomax_1.0E+0_Nuk.txt	5	1	-3.6	1	1
20140310_140417_Snomax_1.0E+0_Nuk.txt	6	1	-3.7	1	1
20140310_140417_Snomax_1.0E+0_Nuk.txt	7	1	-3.6	1	1
20140310_140417_Snomax_1.0E+0_Nuk.txt	8	1	-3.7	1	1
20140310_140417_Snomax_1.0E+0_Nuk.txt	9	1	-3.5	1	1
20140310_140417_Snomax_1.0E+0_Nuk.txt	10	1	-3.5	1	1
20140310_140417_Snomax_1.0E+0_Nuk.txt	11	1	-3.6	1	1
20140310_140417_Snomax_1.0E+0_Nuk.txt	12	1	-3.6	1	1
20140310_140417_Snomax_1.0E+0_Nuk.txt	13	1	-3.7	1	1
20140310_140417_Snomax_1.0E+0_Nuk.txt	14	1	-3.5	1	1
20140310_140417_Snomax_1.0E+0_Nuk.txt	15	1	-3.2	1	1
20140310_140417_Snomax_1.0E+0_Nuk.txt	16	1	-3.7	1	1
20140310_140417_Snomax_1.0E+0_Nuk.txt	17	1	-3.5	1	1
20140310_140417_Snomax_1.0E+0_Nuk.txt	18	1	-3.5	1	1
20140310_140417_Snomax_1.0E+0_Nuk.txt	19	1	-3.6	1	1
20140310_140417_Snomax_1.0E+0_Nuk.txt	20	1	-3.4	1	1
20140310_140417_Snomax_1.0E+0_Nuk.txt	21	1	-3.7	1	1
20140310_140417_Snomax_1.0E+0_Nuk.txt	22	1	-3.5	1	1
20140310_140417_Snomax_1.0E+0_Nuk.txt	23	1	-3.7	1	1
20140310_140417_Snomax_1.0E+0_Nuk.txt	24	1	-3.7	1	1
20140310_140417_Snomax_1.0E+0_Nuk.txt	25	1	-3.5	1	1
20140310_140417_Snomax_1.0E+0_Nuk.txt	26	1	-3.6	1	1
20140310_140417_Snomax_1.0E+0_Nuk.txt	27	1	-3.7	1	1
20140310_140417_Snomax_1.0E+0_Nuk.txt	28	1	-3.6	1	1
20140310_140417_Snomax_1.0E+0_Nuk.txt	29	1	-3.7	1	1
20140310_140417_Snomax_1.0E+0_Nuk.txt	30	1	-3.5	1	1
20140310_140417_Snomax_1.0E+0_Nuk.txt	31	1	-3.7	1	1
20140310_140417_Snomax_1.0E+0_Nuk.txt	32	1	-3.7	1	1
20140310_140417_Snomax_1.0E+0_Nuk.txt	33	1	-3.7	1	1
20140310_140417_Snomax_1.0E+0_Nuk.txt	34	1	-3.4	1	1
20140310_140417_Snomax_1.0E+0_Nuk.txt	35	1	-3.7	1	1
20140310_140417_Snomax_1.0E+0_Nuk.txt	36	1	-3.8	1	1
20140319_201831_Snomax_1.0E0_Nuk.txt	1	1	-4.3	1	1
20140319_201831_Snomax_1.0E0_Nuk.txt	2	1	-3.9	1	1
20140319_201831_Snomax_1.0E0_Nuk.txt	3	1	-4.1	1	1
20140319_201831_Snomax_1.0E0_Nuk.txt	4	1	-4.1	1	1
20140319_201831_Snomax_1.0E0_Nuk.txt	5	1	-4.1	1	1
20140319_201831_Snomax_1.0E0_Nuk.txt	6	1	-4.1	1	1
20140319_201831_Snomax_1.0E0_Nuk.txt	7	1	-3.9	1	1
20140319_201831_Snomax_1.0E0_Nuk.txt	8	1	-4	1	1
20140319_201831_Snomax_1.0E0_Nuk.txt	9	1	-3.7	1	1
20140319_201831_Snomax_1.0E0_Nuk.txt	10	1	-3.9	1	1
20140319_201831_Snomax_1.0E0_Nuk.txt	11	1	-3.8	1	1
20140319_201831_Snomax_1.0E0_Nuk.txt	12	1	-4	1	1
20140319_201831_Snomax_1.0E0_Nuk.txt	13	1	-3.9	1	1
20140319_201831_Snomax_1.0E0_Nuk.txt	14	1	-3.9	1	1
20140319_201831_Snomax_1.0E0_Nuk.txt	15	1	-3.9	1	1
20140319_201831_Snomax_1.0E0_Nuk.txt	16	1	-3.7	1	1
20140319_201831_Snomax_1.0E0_Nuk.txt	17	1	-4.1	1	1
20140319_201831_Snomax_1.0E0_Nuk.txt	18	1	-4	1	1
20140319_201831_Snomax_1.0E0_Nuk.txt	19	1	-3.9	1	1
20140319_201831_Snomax_1.0E0_Nuk.txt	20	1	-4	1	1
20140319_201831_Snomax_1.0E0_Nuk.txt	21	1	-4	1	1
20140319_201831_Snomax_1.0E0_Nuk.txt	22	1	-4	1	1
20140319_201831_Snomax_1.0E0_Nuk.txt	23	1	-3.8	1	1
20140319_201831_Snomax_1.0E0_Nuk.txt	24	1	-3.9	1	1
20140319_201831_Snomax_1.0E0_Nuk.txt	25	1	-3.9	1	1
20140319_201831_Snomax_1.0E0_Nuk.txt	26	1	-4	1	1
20140319_201831_Snomax_1.0E0_Nuk.txt	27	1	-3.8	1	1
20140319_201831_Snomax_1.0E0_Nuk.txt	28	1	-3.7	1	1
20140319_201831_Snomax_1.0E0_Nuk.txt	29	1	-3.9	1	1
20140319_201831_Snomax_1.0E0_Nuk.txt	30	1	-3.8	1	1
20140319_201831_Snomax_1.0E0_Nuk.txt	31	1	-4.2	1	1
20140319_201831_Snomax_1.0E0_Nuk.txt	32	1	-4	1	1
20140319_201831_Snomax_1.0E0_Nuk.txt	33	1	-4.1	1	1
20140319_201831_Snomax_1.0E0_Nuk.txt	34	1	-4	1	1
20140319_201831_Snomax_1.0E0_Nuk.txt	35	1	-3.9	1	1
20140319_201831_Snomax_1.0E0_Nuk.txt	36	1	-4.3	1	1
20140321_103913_Snomax_1.0E0_Nuk.txt	1	1	-3.7	1	1
20140321_103913_Snomax_1.0E0_Nuk.txt	2	1	-3.9	1	1
20140321_103913_Snomax_1.0E0_Nuk.txt	3	1	-3.7	1	1
20140321_103913_Snomax_1.0E0_Nuk.txt	4	1	-3.9	1	1
20140321_103913_Snomax_1.0E0_Nuk.txt	5	1	-3.8	1	1
20140321_103913_Snomax_1.0E0_Nuk.txt	6	1	-3.9	1	1
20140321_103913_Snomax_1.0E0_Nuk.txt	7	1	-3.9	1	1
20140321_103913_Snomax_1.0E0_Nuk.txt	8	1	-3.9	1	1
20140321_103913_Snomax_1.0E0_Nuk.txt	9	1	-3.9	1	1
20140321_103913_Snomax_1.0E0_Nuk.txt	10	1	-3.5	1	1
20140321_103913_Snomax_1.0E0_Nuk.txt	11	1	-3.8	1	1
20140321_103913_Snomax_1.0E0_Nuk.txt	12	1	-3.8	1	1
20140321_103913_Snomax_1.0E0_Nuk.txt	13	1	-3.7	1	1
20140321_103913_Snomax_1.0E0_Nuk.txt	14	1	-3.6	1	1
20140321_103913_Snomax_1.0E0_Nuk.txt	15	1	-3.6	1	1
20140321_103913_Snomax_1.0E0_Nuk.txt	16	1	-3.8	1	1
20140321_103913_Snomax_1.0E0_Nuk.txt	17	1	-3.6	1	1
20140321_103913_Snomax_1.0E0_Nuk.txt	18	1	-3.3	1	1
20140321_103913_Snomax_1.0E0_Nuk.txt	19	1	-3.9	1	1
20140321_103913_Snomax_1.0E0_Nuk.txt	20	1	-3.3	1	1
20140321_103913_Snomax_1.0E0_Nuk.txt	21	1	-3.7	1	1
20140321_103913_Snomax_1.0E0_Nuk.txt	22	1	-3.7	1	1
20140321_103913_Snomax_1.0E0_Nuk.txt	23	1	-3.4	1	1
20140321_103913_Snomax_1.0E0_Nuk.txt	24	1	-3.9	1	1
20140321_103913_Snomax_1.0E0_Nuk.txt	25	1	-3.5	1	1
20140321_103913_Snomax_1.0E0_Nuk.txt	26	1	-3.7	1	1
20140321_103913_Snomax_1.0E0_Nuk.txt	27	1	-3.7	1	1
20140321_103913_Snomax_1.0E0_Nuk.txt	28	1	-3.8	1	1
20140321_103913_Snomax_1.0E0_Nuk.txt	29	1	-3.4	1	1
20140321_103913_Snomax_1.0E0_Nuk.txt	30	1	-3.9	1	1
20140321_103913_Snomax_1.0E0_Nuk.txt	31	1	-3.9	1	1
20140321_103913_Snomax_1.0E0_Nuk.txt	32	1	-3.6	1	1
20140321_103913_Snomax_1.0E0_Nuk.txt	33	1	-3.7	1	1
20140321_103913_Snomax_1.0E0_Nuk.txt	34	1	-3.8	1	1
20140321_103913_Snomax_1.0E0_Nuk.txt	35	1	-3.8	1	1
20140321_103913_Snomax_1.0E0_Nuk.txt	36	1	-3.6	1	1
